EESchema Schematic File Version 2
LIBS:Antennas_kl
LIBS:Connectors_kl
LIBS:memory
LIBS:pcb_details
LIBS:power
LIBS:Power_kl
LIBS:RF ICs
LIBS:Sensors
LIBS:st_kl
LIBS:Tittar_kl
LIBS:Transistors_kl
LIBS:Robotlon-cache
EELAYER 25 0
EELAYER END
$Descr A2 23386 16535
encoding utf-8
Sheet 1 1
Title ""
Date ""
Rev ""
Comp ""
Comment1 ""
Comment2 ""
Comment3 ""
Comment4 ""
$EndDescr
$Comp
L GND #PWR86
U 1 1 55180E91
P 12000 4850
F 0 "#PWR86" H 12090 4830 30  0001 C CNN
F 1 "GND" H 12000 4770 30  0001 C CNN
F 2 "" H 12000 4850 60  0001 C CNN
F 3 "" H 12000 4850 60  0001 C CNN
	1    12000 4850
	1    0    0    -1  
$EndComp
$Comp
L GND #PWR84
U 1 1 55180E97
P 11700 4850
F 0 "#PWR84" H 11790 4830 30  0001 C CNN
F 1 "GND" H 11700 4770 30  0001 C CNN
F 2 "" H 11700 4850 60  0001 C CNN
F 3 "" H 11700 4850 60  0001 C CNN
	1    11700 4850
	1    0    0    -1  
$EndComp
$Comp
L GND #PWR71
U 1 1 55180E9D
P 10850 4850
F 0 "#PWR71" H 10940 4830 30  0001 C CNN
F 1 "GND" H 10850 4770 30  0001 C CNN
F 2 "" H 10850 4850 60  0001 C CNN
F 3 "" H 10850 4850 60  0001 C CNN
	1    10850 4850
	1    0    0    -1  
$EndComp
$Comp
L GND #PWR67
U 1 1 55180EA3
P 10250 4850
F 0 "#PWR67" H 10340 4830 30  0001 C CNN
F 1 "GND" H 10250 4770 30  0001 C CNN
F 2 "" H 10250 4850 60  0001 C CNN
F 3 "" H 10250 4850 60  0001 C CNN
	1    10250 4850
	1    0    0    -1  
$EndComp
$Comp
L GND #PWR63
U 1 1 55180ED7
P 9950 4850
F 0 "#PWR63" H 10040 4830 30  0001 C CNN
F 1 "GND" H 9950 4770 30  0001 C CNN
F 2 "" H 9950 4850 60  0001 C CNN
F 3 "" H 9950 4850 60  0001 C CNN
	1    9950 4850
	1    0    0    -1  
$EndComp
$Comp
L GND #PWR69
U 1 1 55180EE4
P 10550 4850
F 0 "#PWR69" H 10640 4830 30  0001 C CNN
F 1 "GND" H 10550 4770 30  0001 C CNN
F 2 "" H 10550 4850 60  0001 C CNN
F 3 "" H 10550 4850 60  0001 C CNN
	1    10550 4850
	1    0    0    -1  
$EndComp
Text Notes 12300 700  0    60   ~ 0
Radio
$Comp
L GND #PWR70
U 1 1 5519A8A8
P 10700 3000
F 0 "#PWR70" H 10790 2980 30  0001 C CNN
F 1 "GND" H 10700 2920 30  0001 C CNN
F 2 "" H 10700 3000 60  0001 C CNN
F 3 "" H 10700 3000 60  0001 C CNN
	1    10700 3000
	1    0    0    -1  
$EndComp
$Comp
L GND #PWR66
U 1 1 5519A8AE
P 10200 3000
F 0 "#PWR66" H 10290 2980 30  0001 C CNN
F 1 "GND" H 10200 2920 30  0001 C CNN
F 2 "" H 10200 3000 60  0001 C CNN
F 3 "" H 10200 3000 60  0001 C CNN
	1    10200 3000
	1    0    0    -1  
$EndComp
$Comp
L GND #PWR68
U 1 1 5519A8BB
P 10450 3000
F 0 "#PWR68" H 10540 2980 30  0001 C CNN
F 1 "GND" H 10450 2920 30  0001 C CNN
F 2 "" H 10450 3000 60  0001 C CNN
F 3 "" H 10450 3000 60  0001 C CNN
	1    10450 3000
	1    0    0    -1  
$EndComp
Text Label 10800 1700 0    60   ~ 0
CC_GDO0
Text Label 10800 1500 0    60   ~ 0
CC_CS
Text Label 10800 1200 0    60   ~ 0
CC_SCK
Text Label 10800 1400 0    60   ~ 0
CC_MISO
Text Label 10800 1300 0    60   ~ 0
CC_MOSI
Text Label 12750 1400 0    60   ~ 0
RF2
Text Label 12750 1200 0    60   ~ 0
RF1
$Comp
L GND #PWR107
U 1 1 5519A8F4
P 15500 4850
F 0 "#PWR107" H 15590 4830 30  0001 C CNN
F 1 "GND" H 15500 4770 30  0001 C CNN
F 2 "" H 15500 4850 60  0001 C CNN
F 3 "" H 15500 4850 60  0001 C CNN
	1    15500 4850
	1    0    0    -1  
$EndComp
$Comp
L GND #PWR103
U 1 1 5519A901
P 14900 4850
F 0 "#PWR103" H 14990 4830 30  0001 C CNN
F 1 "GND" H 14900 4770 30  0001 C CNN
F 2 "" H 14900 4850 60  0001 C CNN
F 3 "" H 14900 4850 60  0001 C CNN
	1    14900 4850
	1    0    0    -1  
$EndComp
$Comp
L GND #PWR106
U 1 1 5519A915
P 15200 4850
F 0 "#PWR106" H 15290 4830 30  0001 C CNN
F 1 "GND" H 15200 4770 30  0001 C CNN
F 2 "" H 15200 4850 60  0001 C CNN
F 3 "" H 15200 4850 60  0001 C CNN
	1    15200 4850
	1    0    0    -1  
$EndComp
$Comp
L GND #PWR99
U 1 1 5519A91B
P 14600 4850
F 0 "#PWR99" H 14690 4830 30  0001 C CNN
F 1 "GND" H 14600 4770 30  0001 C CNN
F 2 "" H 14600 4850 60  0001 C CNN
F 3 "" H 14600 4850 60  0001 C CNN
	1    14600 4850
	1    0    0    -1  
$EndComp
$Comp
L GND #PWR97
U 1 1 5519A92F
P 14300 4850
F 0 "#PWR97" H 14390 4830 30  0001 C CNN
F 1 "GND" H 14300 4770 30  0001 C CNN
F 2 "" H 14300 4850 60  0001 C CNN
F 3 "" H 14300 4850 60  0001 C CNN
	1    14300 4850
	1    0    0    -1  
$EndComp
$Comp
L GND #PWR95
U 1 1 5519A935
P 14000 4850
F 0 "#PWR95" H 14090 4830 30  0001 C CNN
F 1 "GND" H 14000 4770 30  0001 C CNN
F 2 "" H 14000 4850 60  0001 C CNN
F 3 "" H 14000 4850 60  0001 C CNN
	1    14000 4850
	1    0    0    -1  
$EndComp
$Comp
L GND #PWR91
U 1 1 5519A942
P 12700 2600
F 0 "#PWR91" H 12790 2580 30  0001 C CNN
F 1 "GND" H 12700 2520 30  0001 C CNN
F 2 "" H 12700 2600 60  0001 C CNN
F 3 "" H 12700 2600 60  0001 C CNN
	1    12700 2600
	1    0    0    -1  
$EndComp
$Comp
L GND #PWR85
U 1 1 5519A956
P 12000 3000
F 0 "#PWR85" H 12090 2980 30  0001 C CNN
F 1 "GND" H 12000 2920 30  0001 C CNN
F 2 "" H 12000 3000 60  0001 C CNN
F 3 "" H 12000 3000 60  0001 C CNN
	1    12000 3000
	1    0    0    -1  
$EndComp
$Comp
L GND #PWR72
U 1 1 5519A95C
P 11000 3000
F 0 "#PWR72" H 11090 2980 30  0001 C CNN
F 1 "GND" H 11000 2920 30  0001 C CNN
F 2 "" H 11000 3000 60  0001 C CNN
F 3 "" H 11000 3000 60  0001 C CNN
	1    11000 3000
	1    0    0    -1  
$EndComp
$Comp
L GND #PWR78
U 1 1 5519A962
P 11250 3000
F 0 "#PWR78" H 11340 2980 30  0001 C CNN
F 1 "GND" H 11250 2920 30  0001 C CNN
F 2 "" H 11250 3000 60  0001 C CNN
F 3 "" H 11250 3000 60  0001 C CNN
	1    11250 3000
	1    0    0    -1  
$EndComp
$Comp
L GND #PWR96
U 1 1 5519A97D
P 14150 1950
F 0 "#PWR96" H 14240 1930 30  0001 C CNN
F 1 "GND" H 14150 1870 30  0001 C CNN
F 2 "" H 14150 1950 60  0001 C CNN
F 3 "" H 14150 1950 60  0001 C CNN
	1    14150 1950
	1    0    0    -1  
$EndComp
Text Notes 14150 850  0    60   ~ 0
Matching circuit
Text Notes 800  700  0    60   ~ 0
Programming & debug
Text Label 8450 6400 2    60   ~ 0
GREEN_RGB
Text Label 5950 6400 2    60   ~ 0
BLUE_RGB
Text Label 7150 6400 2    60   ~ 0
RED_RGB
$Comp
L GND #PWR16
U 1 1 551AB272
P 1650 1650
F 0 "#PWR16" H 1740 1630 30  0001 C CNN
F 1 "GND" H 1650 1570 30  0001 C CNN
F 2 "" H 1650 1650 60  0001 C CNN
F 3 "" H 1650 1650 60  0001 C CNN
	1    1650 1650
	0    1    1    0   
$EndComp
Text Label 1200 1550 0    60   ~ 0
SWCLK
Text Label 1200 1750 0    60   ~ 0
SWDIO
Text Label 8400 2250 2    60   ~ 0
SWCLK
Text Label 8400 2150 2    60   ~ 0
SWDIO
Text Label 8350 1050 2    60   ~ 0
UART_TX
Text Label 8050 850  0    60   ~ 0
CC_GDO0
Text Label 8050 950  0    60   ~ 0
CC_CS
Text Label 8050 1350 0    60   ~ 0
CC_SCK
Text Label 8050 1450 0    60   ~ 0
CC_MISO
Text Label 8050 1550 0    60   ~ 0
CC_MOSI
Text Label 8350 1150 2    60   ~ 0
UART_RX
Text Label 1350 1850 0    60   ~ 0
UART_TX
Text Label 1350 1950 0    60   ~ 0
UART_RX
Text Label 14100 1200 0    60   ~ 0
ANT1
Entry Wire Line
	8750 850  8850 750 
Entry Wire Line
	8750 950  8850 850 
Entry Wire Line
	8750 1550 8850 1450
Entry Wire Line
	8750 1450 8850 1350
Entry Wire Line
	8750 1350 8850 1250
Entry Wire Line
	10650 1100 10750 1200
Entry Wire Line
	10650 1200 10750 1300
Entry Wire Line
	10650 1300 10750 1400
Entry Wire Line
	10650 1400 10750 1500
Entry Wire Line
	10650 1600 10750 1700
$Comp
L GND #PWR102
U 1 1 552947EE
P 14850 1950
F 0 "#PWR102" H 14940 1930 30  0001 C CNN
F 1 "GND" H 14850 1870 30  0001 C CNN
F 2 "" H 14850 1950 60  0001 C CNN
F 3 "" H 14850 1950 60  0001 C CNN
	1    14850 1950
	1    0    0    -1  
$EndComp
Text Label 14900 1200 0    60   ~ 0
ANT2
Text Notes 10100 3950 0    60   ~ 0
MCU Power Filter
Text Notes 9850 4100 0    60   ~ 0
Pins   19    32       48       64     1       13
Text Notes 14100 3950 0    60   ~ 0
CC Power Filter
Text Notes 13650 4100 0    60   ~ 0
Pins  15,   14,    11,    9,     4,    18
$Comp
L PWR_FLAG #FLG4
U 1 1 5554364F
P 12400 4100
F 0 "#FLG4" H 12400 4370 30  0001 C CNN
F 1 "PWR_FLAG" H 12400 4300 30  0000 C CNN
F 2 "" H 12400 4100 60  0000 C CNN
F 3 "" H 12400 4100 60  0000 C CNN
	1    12400 4100
	1    0    0    -1  
$EndComp
$Comp
L PWR_FLAG #FLG5
U 1 1 555440CB
P 15650 4100
F 0 "#FLG5" H 15650 4370 30  0001 C CNN
F 1 "PWR_FLAG" H 15650 4300 30  0000 C CNN
F 2 "" H 15650 4100 60  0000 C CNN
F 3 "" H 15650 4100 60  0000 C CNN
	1    15650 4100
	1    0    0    -1  
$EndComp
Text Label 10500 1400 2    60   ~ 0
CC_CS
$Comp
L PwrMCU #PWR90
U 1 1 5695BD53
P 12500 4250
F 0 "#PWR90" H 12500 4300 30  0001 C CNN
F 1 "PwrMCU" H 12570 4280 30  0000 C CNN
F 2 "" H 12500 4250 60  0000 C CNN
F 3 "" H 12500 4250 60  0000 C CNN
	1    12500 4250
	1    0    0    -1  
$EndComp
$Comp
L VCC #PWR108
U 1 1 5695E69E
P 15750 4250
F 0 "#PWR108" H 15750 4300 30  0001 C CNN
F 1 "VCC" H 15820 4280 30  0000 C CNN
F 2 "" H 15750 4250 60  0000 C CNN
F 3 "" H 15750 4250 60  0000 C CNN
	1    15750 4250
	1    0    0    -1  
$EndComp
Entry Wire Line
	10650 1500 10550 1400
Text Notes 9650 1250 0    60   ~ 0
Keep CS High\nwhen sleeping
$Comp
L VCC #PWR92
U 1 1 569643F4
P 12900 2100
F 0 "#PWR92" H 12900 2150 30  0001 C CNN
F 1 "VCC" H 12970 2130 30  0000 C CNN
F 2 "" H 12900 2100 60  0000 C CNN
F 3 "" H 12900 2100 60  0000 C CNN
	1    12900 2100
	1    0    0    -1  
$EndComp
$Comp
L PwrMCU #PWR12
U 1 1 56965F70
P 1550 1450
F 0 "#PWR12" H 1550 1500 30  0001 C CNN
F 1 "PwrMCU" H 1620 1480 30  0000 C CNN
F 2 "" H 1550 1450 60  0000 C CNN
F 3 "" H 1550 1450 60  0000 C CNN
	1    1550 1450
	1    0    0    -1  
$EndComp
$Comp
L GND #PWR25
U 1 1 56965891
P 2700 2800
F 0 "#PWR25" H 2790 2780 30  0001 C CNN
F 1 "GND" H 2700 2720 30  0001 C CNN
F 2 "" H 2700 2800 60  0001 C CNN
F 3 "" H 2700 2800 60  0001 C CNN
	1    2700 2800
	0    1    1    0   
$EndComp
$Comp
L GND #PWR24
U 1 1 5696589E
P 2700 2600
F 0 "#PWR24" H 2790 2580 30  0001 C CNN
F 1 "GND" H 2700 2520 30  0001 C CNN
F 2 "" H 2700 2600 60  0001 C CNN
F 3 "" H 2700 2600 60  0001 C CNN
	1    2700 2600
	0    1    1    0   
$EndComp
$Comp
L GND #PWR26
U 1 1 569658A4
P 2700 3000
F 0 "#PWR26" H 2790 2980 30  0001 C CNN
F 1 "GND" H 2700 2920 30  0001 C CNN
F 2 "" H 2700 3000 60  0001 C CNN
F 3 "" H 2700 3000 60  0001 C CNN
	1    2700 3000
	0    1    1    0   
$EndComp
Text Notes 2600 3550 0    60   ~ 0
Crystal required \nfor exact IR timings \nand freqs
$Comp
L VCC #PWR62
U 1 1 569B8170
P 9600 1400
F 0 "#PWR62" H 9600 1450 30  0001 C CNN
F 1 "VCC" H 9670 1430 30  0000 C CNN
F 2 "" H 9600 1400 60  0000 C CNN
F 3 "" H 9600 1400 60  0000 C CNN
	1    9600 1400
	-1   0    0    -1  
$EndComp
$Comp
L CC1101 DD3
U 1 1 570064C1
P 12050 1850
F 0 "DD3" H 11600 2650 60  0000 C CNN
F 1 "CC1101" H 12350 2650 60  0000 C CNN
F 2 "QFN_DFN:QFN20" H 11500 2550 60  0001 C CNN
F 3 "" H 11600 2650 60  0001 C CNN
F 4 "http://" H 11700 2750 60  0001 C CNN "URL"
F 5 "140" H 11800 2850 60  0001 C CNN "Price"
F 6 "21" H 11900 2950 60  0001 C CNN "SolderPoints"
	1    12050 1850
	1    0    0    -1  
$EndComp
$Comp
L CRYSTAL_H XTAL2
U 1 1 57007129
P 10450 2450
F 0 "XTAL2" H 10450 2725 60  0000 C CNN
F 1 "27MHz" H 10475 2650 60  0000 C CNN
F 2 "Quartz:03225C4" H 10475 2575 39  0001 C CNN
F 3 "" H 10450 2725 60  0001 C CNN
F 4 "15" H 10550 2825 60  0001 C CNN "Price"
F 5 "4" H 10650 2925 60  0001 C CNN "SolderPoints"
	1    10450 2450
	1    0    0    -1  
$EndComp
$Comp
L C C15
U 1 1 5700802E
P 10200 2700
F 0 "C15" H 10100 2600 50  0000 L CNN
F 1 "18pF" H 10100 2800 50  0000 L CNN
F 2 "Capacitors:CAP_0603" V 10300 2550 28  0001 C BNN
F 3 "" H 10100 2600 60  0001 C CNN
F 4 "0.5" H 10200 2700 60  0001 C CNN "Price"
F 5 "2" H 10300 2800 60  0001 C CNN "SolderPoints"
	1    10200 2700
	1    0    0    -1  
$EndComp
$Comp
L C C18
U 1 1 570082A2
P 10700 2700
F 0 "C18" H 10600 2600 50  0000 L CNN
F 1 "18pF" H 10600 2800 50  0000 L CNN
F 2 "Capacitors:CAP_0603" V 10800 2550 28  0001 C BNN
F 3 "" H 10600 2600 60  0001 C CNN
F 4 "0.5" H 10700 2700 60  0001 C CNN "Price"
F 5 "2" H 10800 2800 60  0001 C CNN "SolderPoints"
	1    10700 2700
	1    0    0    -1  
$EndComp
$Comp
L R R33
U 1 1 570084A3
P 11250 2700
F 0 "R33" V 11330 2550 50  0000 C CNN
F 1 "56k" V 11250 2700 50  0000 C CNN
F 2 "Resistors:RES_0603" V 11330 2800 28  0001 C CNN
F 3 "" V 11330 2550 60  0000 C CNN
F 4 "0.5" V 11430 2650 60  0001 C CNN "Price"
F 5 "2" V 11530 2750 60  0001 C CNN "SolderPoints"
	1    11250 2700
	1    0    0    -1  
$EndComp
$Comp
L L L4
U 1 1 5700AA55
P 14500 1200
F 0 "L4" V 14400 1060 40  0000 C CNN
F 1 "5.6nH" V 14400 1200 40  0000 C CNN
F 2 "Inductors:IND_0402" V 14560 1210 40  0001 C CNN
F 3 "" V 14400 1060 60  0001 C CNN
F 4 "4" V 14500 1160 60  0001 C CNN "Price"
F 5 "2" V 14600 1260 60  0001 C CNN "SolderPoints"
	1    14500 1200
	0    1    1    0   
$EndComp
$Comp
L C C28
U 1 1 5700B467
P 14150 1700
F 0 "C28" H 14050 1600 50  0000 L CNN
F 1 "3.9pF" H 14050 1800 50  0000 L CNN
F 2 "Capacitors:CAP_0402" V 14250 1550 28  0001 C BNN
F 3 "" H 14050 1600 60  0001 C CNN
F 4 "0.5" H 14150 1700 60  0001 C CNN "Price"
F 5 "2" H 14250 1800 60  0001 C CNN "SolderPoints"
	1    14150 1700
	1    0    0    -1  
$EndComp
$Comp
L C C31
U 1 1 5700BD08
P 14850 1700
F 0 "C31" H 14750 1600 50  0000 L CNN
F 1 "DoNotMount" H 14750 1800 50  0000 L CNN
F 2 "Capacitors:CAP_0402" V 14950 1550 28  0001 C BNN
F 3 "" H 14750 1600 60  0001 C CNN
F 4 "0" H 14850 1700 60  0001 C CNN "Price"
F 5 "0" H 14950 1800 60  0001 C CNN "SolderPoints"
	1    14850 1700
	1    0    0    -1  
$EndComp
$Comp
L ANT_PCB_MONO ANT1
U 1 1 5700C7F6
P 15450 1200
F 0 "ANT1" H 15550 1350 60  0000 C CNN
F 1 "ANT_PCB_MONO" H 15500 1350 60  0001 C CNN
F 2 "Radio:ANT_868_Robotlon" H 15150 1350 60  0001 C CNN
F 3 "" H 15250 1450 60  0001 C CNN
F 4 "0" H 15350 1550 60  0001 C CNN "Price"
F 5 "0" H 15450 1650 60  0001 C CNN "SolderPoints"
	1    15450 1200
	1    0    0    -1  
$EndComp
$Comp
L R R30
U 1 1 5700FC29
P 9900 1400
F 0 "R30" V 9980 1250 50  0000 C CNN
F 1 "20k" V 9900 1400 50  0000 C CNN
F 2 "Resistors:RES_0603" V 9980 1500 28  0001 C CNN
F 3 "" V 9980 1250 60  0000 C CNN
F 4 "0.5" V 10080 1350 60  0001 C CNN "Price"
F 5 "2" V 10180 1450 60  0001 C CNN "SolderPoints"
	1    9900 1400
	0    1    -1   0   
$EndComp
$Comp
L L L3
U 1 1 57022754
P 13700 4250
F 0 "L3" V 13600 4050 40  0000 C CNN
F 1 "BLM15AG102" V 13600 4350 40  0000 C CNN
F 2 "Inductors:IND_0402" V 13760 4260 40  0001 C CNN
F 3 "" V 13600 4110 60  0001 C CNN
F 4 "1" V 13700 4210 60  0001 C CNN "Price"
F 5 "2" V 13800 4310 60  0001 C CNN "SolderPoints"
F 6 "BLM15AG102SN1" V 13700 4250 60  0001 C CNN "PN"
	1    13700 4250
	0    1    1    0   
$EndComp
$Comp
L GND #PWR81
U 1 1 570253DF
P 11400 4850
F 0 "#PWR81" H 11490 4830 30  0001 C CNN
F 1 "GND" H 11400 4770 30  0001 C CNN
F 2 "" H 11400 4850 60  0001 C CNN
F 3 "" H 11400 4850 60  0001 C CNN
	1    11400 4850
	1    0    0    -1  
$EndComp
$Comp
L L L2
U 1 1 57033B92
P 9650 4250
F 0 "L2" V 9450 4100 40  0000 C CNN
F 1 "BLM15AG102" V 9550 4250 40  0000 C CNN
F 2 "Inductors:IND_0402" V 9710 4260 40  0001 C CNN
F 3 "" V 9550 4110 60  0001 C CNN
F 4 "1" V 9650 4210 60  0001 C CNN "Price"
F 5 "2" V 9750 4310 60  0001 C CNN "SolderPoints"
F 6 "BLM15AG102SN1" V 9650 4250 60  0001 C CNN "PN"
	1    9650 4250
	0    1    1    0   
$EndComp
$Comp
L STM32L476Rx DD2
U 1 1 57030B01
P 6000 2250
F 0 "DD2" H 5550 3800 60  0000 C CNN
F 1 "STM32L476Rx" H 6200 3800 60  0000 C CNN
F 2 "LQFP_TQFP:LQFP64" H 5900 4025 60  0001 C CNN
F 3 "" H 6000 2250 60  0000 C CNN
F 4 "64" H 5650 3900 60  0001 C CNN "SolderPoints"
F 5 "290" H 5750 4000 60  0001 C CNN "Price"
F 6 "STM32L476RCT6" H 5850 4100 60  0001 C CNN "PN"
	1    6000 2250
	1    0    0    -1  
$EndComp
$Comp
L R R10
U 1 1 570346E9
P 3600 3000
F 0 "R10" V 3680 2850 50  0000 C CNN
F 1 "390R" V 3600 3000 50  0000 C CNN
F 2 "Resistors:RES_0603" V 3680 3100 28  0001 C CNN
F 3 "" V 3680 2850 60  0000 C CNN
F 4 "0.5" V 3780 2950 60  0001 C CNN "Price"
F 5 "2" V 3880 3050 60  0001 C CNN "SolderPoints"
	1    3600 3000
	0    -1   -1   0   
$EndComp
$Comp
L CRYSTAL_H XTAL1
U 1 1 57034A05
P 3250 2800
F 0 "XTAL1" V 3150 3050 60  0000 C CNN
F 1 "12MHz" V 3250 3050 60  0000 C CNN
F 2 "Quartz:0503x4-4" H 3275 2925 39  0001 C CNN
F 3 "" H 3250 3075 60  0001 C CNN
F 4 "15" H 3350 3175 60  0001 C CNN "Price"
F 5 "4" H 3450 3275 60  0001 C CNN "SolderPoints"
	1    3250 2800
	0    1    1    0   
$EndComp
$Comp
L C C4
U 1 1 57035A00
P 2950 2600
F 0 "C4" V 2850 2400 50  0000 L CNN
F 1 "18pF" V 2850 2700 50  0000 L CNN
F 2 "Capacitors:CAP_0603" V 3050 2450 28  0001 C BNN
F 3 "" H 2850 2500 60  0001 C CNN
F 4 "0.5" H 2950 2600 60  0001 C CNN "Price"
F 5 "2" H 3050 2700 60  0001 C CNN "SolderPoints"
	1    2950 2600
	0    1    1    0   
$EndComp
$Comp
L C C5
U 1 1 570361AB
P 2950 3000
F 0 "C5" V 2850 2800 50  0000 L CNN
F 1 "18pF" V 2850 3100 50  0000 L CNN
F 2 "Capacitors:CAP_0603" V 3050 2850 28  0001 C BNN
F 3 "" H 2850 2900 60  0001 C CNN
F 4 "0.5" H 2950 3000 60  0001 C CNN "Price"
F 5 "2" H 3050 3100 60  0001 C CNN "SolderPoints"
	1    2950 3000
	0    1    -1   0   
$EndComp
$Comp
L PwrMCU #PWR32
U 1 1 57038A3B
P 3750 3800
F 0 "#PWR32" H 3750 3850 30  0001 C CNN
F 1 "PwrMCU" H 3820 3830 30  0000 C CNN
F 2 "" H 3750 3800 60  0000 C CNN
F 3 "" H 3750 3800 60  0000 C CNN
	1    3750 3800
	-1   0    0    -1  
$EndComp
$Comp
L GND #PWR38
U 1 1 5703AD1E
P 5550 4850
F 0 "#PWR38" H 5640 4830 30  0001 C CNN
F 1 "GND" H 5550 4770 30  0001 C CNN
F 2 "" H 5550 4850 60  0000 C CNN
F 3 "" H 5550 4850 60  0000 C CNN
	1    5550 4850
	1    0    0    -1  
$EndComp
$Comp
L GND #PWR33
U 1 1 5703C4FD
P 3850 4850
F 0 "#PWR33" H 3940 4830 30  0001 C CNN
F 1 "GND" H 3850 4770 30  0001 C CNN
F 2 "" H 3850 4850 60  0000 C CNN
F 3 "" H 3850 4850 60  0000 C CNN
	1    3850 4850
	1    0    0    -1  
$EndComp
$Comp
L GND #PWR89
U 1 1 5703EECB
P 12250 4850
F 0 "#PWR89" H 12340 4830 30  0001 C CNN
F 1 "GND" H 12250 4770 30  0001 C CNN
F 2 "" H 12250 4850 60  0001 C CNN
F 3 "" H 12250 4850 60  0001 C CNN
	1    12250 4850
	1    0    0    -1  
$EndComp
$Comp
L C C26
U 1 1 5703EED5
P 12250 4550
F 0 "C26" H 12150 4450 50  0000 L CNN
F 1 "1u" H 12150 4650 50  0000 L CNN
F 2 "Capacitors:CAP_0603" V 12350 4400 28  0001 C BNN
F 3 "" H 12150 4450 60  0001 C CNN
F 4 "0.5" H 12250 4550 60  0001 C CNN "Price"
F 5 "2" H 12350 4650 60  0001 C CNN "SolderPoints"
	1    12250 4550
	1    0    0    1   
$EndComp
Text Label 8000 1250 0    60   ~ 0
IR_OUT_DAC
Text Notes 600  2950 0    60   ~ 0
           EEPROM\nI2C Addr = 1010000 (0x50)
$Comp
L GND #PWR1
U 1 1 5704ACE2
P 650 4700
F 0 "#PWR1" H 740 4680 30  0001 C CNN
F 1 "GND" H 650 4620 30  0001 C CNN
F 2 "" H 650 4700 60  0000 C CNN
F 3 "" H 650 4700 60  0000 C CNN
	1    650  4700
	-1   0    0    -1  
$EndComp
$Comp
L GND #PWR73
U 1 1 57050739
P 11100 4850
F 0 "#PWR73" H 11190 4830 30  0001 C CNN
F 1 "GND" H 11100 4770 30  0001 C CNN
F 2 "" H 11100 4850 60  0001 C CNN
F 3 "" H 11100 4850 60  0001 C CNN
	1    11100 4850
	1    0    0    -1  
$EndComp
$Comp
L C C21
U 1 1 57050742
P 11100 4550
F 0 "C21" H 11000 4450 50  0000 L CNN
F 1 "1u" H 11000 4650 50  0000 L CNN
F 2 "Capacitors:CAP_0603" V 11200 4400 28  0001 C BNN
F 3 "" H 11000 4450 60  0001 C CNN
F 4 "0.5" H 11100 4550 60  0001 C CNN "Price"
F 5 "2" H 11200 4650 60  0001 C CNN "SolderPoints"
	1    11100 4550
	1    0    0    1   
$EndComp
$Comp
L GND #PWR17
U 1 1 57055314
P 1700 4700
F 0 "#PWR17" H 1790 4680 30  0001 C CNN
F 1 "GND" H 1700 4620 30  0001 C CNN
F 2 "" H 1700 4700 60  0000 C CNN
F 3 "" H 1700 4700 60  0000 C CNN
	1    1700 4700
	-1   0    0    -1  
$EndComp
$Comp
L GND #PWR11
U 1 1 570553BE
P 1500 4700
F 0 "#PWR11" H 1590 4680 30  0001 C CNN
F 1 "GND" H 1500 4620 30  0001 C CNN
F 2 "" H 1500 4700 60  0000 C CNN
F 3 "" H 1500 4700 60  0000 C CNN
	1    1500 4700
	-1   0    0    -1  
$EndComp
Text Label 3350 1750 0    60   ~ 0
IR_OUT_TIM
Text Label 12850 5850 0    60   ~ 0
IR_OUT_DAC
Text Label 12850 6100 0    60   ~ 0
IR_OUT_TIM
$Comp
L R R36
U 1 1 5705944A
P 13700 5850
F 0 "R36" V 13800 5850 50  0000 C CNN
F 1 "10k" V 13700 5850 50  0000 C CNN
F 2 "Resistors:RES_0603" V 13780 5950 28  0001 C CNN
F 3 "" V 13780 5700 60  0000 C CNN
F 4 "0.5" V 13880 5800 60  0001 C CNN "Price"
F 5 "2" V 13980 5900 60  0001 C CNN "SolderPoints"
	1    13700 5850
	0    1    -1   0   
$EndComp
$Comp
L NPN Q18
U 1 1 57059A5F
P 15100 6400
F 0 "Q18" H 15300 6450 60  0000 C CNN
F 1 "NSS20101" H 15500 6350 60  0000 C CNN
F 2 "SOT:SC89-3" H 15100 6400 60  0001 C CNN
F 3 "" H 15100 6400 60  0000 C CNN
F 4 "NSS20101JT1G" H 15100 6400 60  0001 C CNN "PN"
F 5 "https://www.terraelectronica.ru/catalog.php?ID=356&search=nss20101" H 15100 6400 60  0001 C CNN "URL"
F 6 "5" H 15100 6400 60  0001 C CNN "Price"
F 7 "3" H 15100 6400 60  0001 C CNN "SolderPoints"
	1    15100 6400
	1    0    0    -1  
$EndComp
$Comp
L LED D8
U 1 1 5705A79F
P 15150 5600
F 0 "D8" H 15250 5740 50  0000 C CNN
F 1 "LED" H 15070 5740 50  0000 C CNN
F 2 "LEDs:LED_Through-Hole-5mm-HOR" H 15150 5640 60  0001 C CNN
F 3 "" H 15250 5740 60  0001 C CNN
F 4 "4" H 15350 5840 60  0001 C CNN "Price"
F 5 "2" H 15450 5940 60  0001 C CNN "SolderPointsDIP"
F 6 "TSAL6200" H 15150 5600 60  0001 C CNN "PN"
F 7 "https://www.terraelectronica.ru/catalog_info.php?CODE=31376" H 15150 5600 60  0001 C CNN "URL"
	1    15150 5600
	0    1    1    0   
$EndComp
NoConn ~ 11300 1800
NoConn ~ 7950 3900
Text Label 1950 3850 2    60   ~ 0
SDA_EE
Text Label 1950 3950 2    60   ~ 0
SCL_EE
Text Label 1750 3300 0    60   ~ 0
SDA_EE
Text Label 1750 3400 0    60   ~ 0
SCL_EE
$Comp
L R R2
U 1 1 5705263C
P 1400 3300
F 0 "R2" V 1480 3300 50  0000 C CNN
F 1 "10k" V 1400 3300 50  0000 C CNN
F 2 "Resistors:RES_0603" H 1400 3300 60  0001 C CNN
F 3 "" H 1400 3300 60  0001 C CNN
	1    1400 3300
	0    -1   -1   0   
$EndComp
$Comp
L R R3
U 1 1 57052642
P 1400 3400
F 0 "R3" V 1480 3400 50  0000 C CNN
F 1 "10k" V 1400 3400 50  0000 C CNN
F 2 "Resistors:RES_0603" H 1400 3400 60  0001 C CNN
F 3 "" H 1400 3400 60  0001 C CNN
	1    1400 3400
	0    1    1    0   
$EndComp
$Comp
L TESTPOINT TP1
U 1 1 57054D6C
P 3350 1650
F 0 "TP1" H 3150 1650 60  0000 C CNN
F 1 "TESTPOINT" H 3325 1875 60  0001 C CNN
F 2 "PCB:TESTPOINT_1MM" H 3250 1700 60  0001 C CNN
F 3 "" H 3350 1800 60  0001 C CNN
F 4 "0" H 3450 1900 60  0001 C CNN "Price"
F 5 "0" H 3550 2000 60  0001 C CNN "SolderPoints"
	1    3350 1650
	1    0    0    -1  
$EndComp
Text Label 8050 2650 0    60   ~ 0
SDA_EE
Text Label 8050 2550 0    60   ~ 0
SCL_EE
$Comp
L Fuse0R F3
U 1 1 5707B558
P 13700 6100
F 0 "F3" V 13630 6100 50  0000 C CNN
F 1 "Fuse0R" V 13700 6100 50  0000 C CNN
F 2 "Resistors:RES_0603_FUSE" V 13530 6000 60  0001 C CNN
F 3 "" V 13630 6100 60  0001 C CNN
F 4 "1" V 13730 6200 60  0001 C CNN "SolderPoints"
F 5 "0" V 13830 6300 60  0001 C CNN "Price"
	1    13700 6100
	0    1    1    0   
$EndComp
Text Notes 7300 8750 0    60   ~ 0
Power
$Comp
L EEPROM_I2C DD1
U 1 1 57099262
P 1100 4050
F 0 "DD1" H 750 4400 60  0000 C CNN
F 1 "24C08" H 1200 4400 60  0000 C CNN
F 2 "SO_DIL_TSSOP:SO8_150MIL" H 650 4300 60  0001 C CNN
F 3 "" H 750 4400 60  0001 C CNN
F 4 "M24C08-WMN6P" H 850 4500 60  0001 C CNN "PN"
F 5 "8" H 950 4600 60  0001 C CNN "SolderPoints"
F 6 "8.5" H 1050 4700 60  0001 C CNN "Price"
F 7 "https://www.terraelectronica.ru/catalog_info.php?CODE=328439" H 1150 4800 60  0001 C CNN "URL"
F 8 "1" H 1100 4050 60  0001 C CNN "Icc"
	1    1100 4050
	1    0    0    -1  
$EndComp
$Comp
L +3.3V #PWR61
U 1 1 5709C3B7
P 9350 4250
F 0 "#PWR61" H 9350 4210 30  0001 C CNN
F 1 "+3.3V" H 9430 4280 30  0000 C CNN
F 2 "" H 9350 4250 60  0001 C CNN
F 3 "" H 9350 4250 60  0001 C CNN
	1    9350 4250
	-1   0    0    -1  
$EndComp
$Comp
L +3.3V #PWR93
U 1 1 5709D1F6
P 13400 4250
F 0 "#PWR93" H 13400 4210 30  0001 C CNN
F 1 "+3.3V" H 13480 4280 30  0000 C CNN
F 2 "" H 13400 4250 60  0001 C CNN
F 3 "" H 13400 4250 60  0001 C CNN
	1    13400 4250
	-1   0    0    -1  
$EndComp
NoConn ~ 7950 4200
NoConn ~ 7950 4300
NoConn ~ 7950 2850
NoConn ~ 7950 1850
$Comp
L NPN Q16
U 1 1 570DBCA2
P 14350 6100
F 0 "Q16" H 14550 6150 60  0000 C CNN
F 1 "NSS20101" H 14750 6050 60  0000 C CNN
F 2 "SOT:SC89-3" H 14350 6100 60  0001 C CNN
F 3 "" H 14350 6100 60  0000 C CNN
F 4 "NSS20101JT1G" H 14350 6100 60  0001 C CNN "PN"
F 5 "https://www.terraelectronica.ru/catalog.php?ID=356&search=nss20101" H 14350 6100 60  0001 C CNN "URL"
F 6 "5" H 14350 6100 60  0001 C CNN "Price"
F 7 "3" H 14350 6100 60  0001 C CNN "SolderPoints"
	1    14350 6100
	1    0    0    -1  
$EndComp
$Comp
L R R38
U 1 1 570DE512
P 14400 6750
F 0 "R38" H 14550 6700 50  0000 C CNN
F 1 "1k" V 14400 6750 50  0000 C CNN
F 2 "Resistors:RES_0603" V 14480 6850 28  0001 C CNN
F 3 "" V 14480 6600 60  0000 C CNN
F 4 "0.5" V 14580 6700 60  0001 C CNN "Price"
F 5 "2" V 14680 6800 60  0001 C CNN "SolderPoints"
	1    14400 6750
	1    0    0    -1  
$EndComp
Text Label 14650 5900 0    60   ~ 0
IR_TX_OUT
$Comp
L CONN_6 XL3
U 1 1 570BE081
P 900 1700
F 0 "XL3" V 850 1700 50  0000 C CNN
F 1 "CONN_6" V 950 1700 50  0000 C CNN
F 2 "Connectors:PLS-6" H 900 1700 60  0001 C CNN
F 3 "" H 900 1700 60  0000 C CNN
F 4 "6" V 900 1700 60  0001 C CNN "SolderPointsDIP"
	1    900  1700
	-1   0    0    -1  
$EndComp
$Comp
L C C14
U 1 1 570ED0ED
P 9950 4550
F 0 "C14" H 9850 4450 50  0000 L CNN
F 1 "10u" H 9850 4650 50  0000 L CNN
F 2 "Capacitors:CAP_0603" V 10050 4400 28  0001 C BNN
F 3 "" H 9850 4450 60  0001 C CNN
F 4 "2.5" H 9950 4550 60  0001 C CNN "Price"
F 5 "2" H 10050 4650 60  0001 C CNN "SolderPoints"
F 6 "CL10A106MQ8NNNC" H 9950 4550 60  0001 C CNN "PN"
F 7 "https://www.terraelectronica.ru/catalog.php?ID=1155&search=cl10a106mq8nnnc" H 9950 4550 60  0001 C CNN "URL"
	1    9950 4550
	1    0    0    1   
$EndComp
$Comp
L C C30
U 1 1 570F8522
P 14600 4550
F 0 "C30" H 14500 4450 50  0000 L CNN
F 1 "3.3pF" H 14500 4650 50  0000 L CNN
F 2 "Capacitors:CAP_0603" V 14700 4400 28  0001 C BNN
F 3 "" H 14500 4450 60  0001 C CNN
F 4 "0.5" H 14600 4550 60  0001 C CNN "Price"
F 5 "2" H 14700 4650 60  0001 C CNN "SolderPoints"
F 6 "~" H 14600 4550 60  0001 C CNN "PN"
F 7 "~" H 14600 4550 60  0001 C CNN "URL"
	1    14600 4550
	1    0    0    1   
$EndComp
$Comp
L C C32
U 1 1 570FD19E
P 14900 4550
F 0 "C32" H 14800 4450 50  0000 L CNN
F 1 "10n" H 14800 4650 50  0000 L CNN
F 2 "Capacitors:CAP_0603" V 15000 4400 28  0001 C BNN
F 3 "" H 14800 4450 60  0001 C CNN
F 4 "0.5" H 14900 4550 60  0001 C CNN "Price"
F 5 "2" H 15000 4650 60  0001 C CNN "SolderPoints"
F 6 "~" H 14900 4550 60  0001 C CNN "PN"
F 7 "~" H 14900 4550 60  0001 C CNN "URL"
	1    14900 4550
	1    0    0    1   
$EndComp
$Comp
L C C29
U 1 1 570FEA33
P 14300 4550
F 0 "C29" H 14200 4450 50  0000 L CNN
F 1 "10n" H 14200 4650 50  0000 L CNN
F 2 "Capacitors:CAP_0603" V 14400 4400 28  0001 C BNN
F 3 "" H 14200 4450 60  0001 C CNN
F 4 "0.5" H 14300 4550 60  0001 C CNN "Price"
F 5 "2" H 14400 4650 60  0001 C CNN "SolderPoints"
F 6 "~" H 14300 4550 60  0001 C CNN "PN"
F 7 "~" H 14300 4550 60  0001 C CNN "URL"
	1    14300 4550
	1    0    0    1   
$EndComp
$Comp
L C C3
U 1 1 570ED75B
P 1700 4400
F 0 "C3" H 1600 4300 50  0000 L CNN
F 1 "0.1u" H 1600 4500 50  0000 L CNN
F 2 "Capacitors:CAP_0603" V 1800 4250 28  0001 C BNN
F 3 "" H 1600 4300 60  0001 C CNN
F 4 "0.5" H 1700 4400 60  0001 C CNN "Price"
F 5 "2" H 1800 4500 60  0001 C CNN "SolderPoints"
	1    1700 4400
	1    0    0    1   
$EndComp
$Comp
L C C33
U 1 1 570EF9E9
P 15200 4550
F 0 "C33" H 15100 4450 50  0000 L CNN
F 1 "0.1u" H 15100 4650 50  0000 L CNN
F 2 "Capacitors:CAP_0603" V 15300 4400 28  0001 C BNN
F 3 "" H 15100 4450 60  0001 C CNN
F 4 "0.5" H 15200 4550 60  0001 C CNN "Price"
F 5 "2" H 15300 4650 60  0001 C CNN "SolderPoints"
	1    15200 4550
	1    0    0    1   
$EndComp
$Comp
L C C25
U 1 1 570EFAFE
P 12000 4550
F 0 "C25" H 11900 4450 50  0000 L CNN
F 1 "0.1u" H 11900 4650 50  0000 L CNN
F 2 "Capacitors:CAP_0603" V 12100 4400 28  0001 C BNN
F 3 "" H 11900 4450 60  0001 C CNN
F 4 "0.5" H 12000 4550 60  0001 C CNN "Price"
F 5 "2" H 12100 4650 60  0001 C CNN "SolderPoints"
	1    12000 4550
	1    0    0    1   
$EndComp
$Comp
L C C17
U 1 1 570EFF18
P 10550 4550
F 0 "C17" H 10450 4450 50  0000 L CNN
F 1 "0.1u" H 10450 4650 50  0000 L CNN
F 2 "Capacitors:CAP_0603" V 10650 4400 28  0001 C BNN
F 3 "" H 10450 4450 60  0001 C CNN
F 4 "0.5" H 10550 4550 60  0001 C CNN "Price"
F 5 "2" H 10650 4650 60  0001 C CNN "SolderPoints"
	1    10550 4550
	1    0    0    1   
$EndComp
$Comp
L C C19
U 1 1 570EFF28
P 10850 4550
F 0 "C19" H 10750 4450 50  0000 L CNN
F 1 "0.1u" H 10750 4650 50  0000 L CNN
F 2 "Capacitors:CAP_0603" V 10950 4400 28  0001 C BNN
F 3 "" H 10750 4450 60  0001 C CNN
F 4 "0.5" H 10850 4550 60  0001 C CNN "Price"
F 5 "2" H 10950 4650 60  0001 C CNN "SolderPoints"
	1    10850 4550
	1    0    0    1   
$EndComp
$Comp
L C C24
U 1 1 570F0204
P 11700 4550
F 0 "C24" H 11600 4450 50  0000 L CNN
F 1 "0.1u" H 11600 4650 50  0000 L CNN
F 2 "Capacitors:CAP_0603" V 11800 4400 28  0001 C BNN
F 3 "" H 11600 4450 60  0001 C CNN
F 4 "0.5" H 11700 4550 60  0001 C CNN "Price"
F 5 "2" H 11800 4650 60  0001 C CNN "SolderPoints"
	1    11700 4550
	1    0    0    1   
$EndComp
$Comp
L C C23
U 1 1 570F020C
P 11400 4550
F 0 "C23" H 11300 4450 50  0000 L CNN
F 1 "0.1u" H 11300 4650 50  0000 L CNN
F 2 "Capacitors:CAP_0603" V 11500 4400 28  0001 C BNN
F 3 "" H 11300 4450 60  0001 C CNN
F 4 "0.5" H 11400 4550 60  0001 C CNN "Price"
F 5 "2" H 11500 4650 60  0001 C CNN "SolderPoints"
	1    11400 4550
	1    0    0    1   
$EndComp
$Comp
L C C16
U 1 1 570F07A8
P 10250 4550
F 0 "C16" H 10150 4450 50  0000 L CNN
F 1 "0.1u" H 10150 4650 50  0000 L CNN
F 2 "Capacitors:CAP_0603" V 10350 4400 28  0001 C BNN
F 3 "" H 10150 4450 60  0001 C CNN
F 4 "0.5" H 10250 4550 60  0001 C CNN "Price"
F 5 "2" H 10350 4650 60  0001 C CNN "SolderPoints"
	1    10250 4550
	1    0    0    1   
$EndComp
$Comp
L C C20
U 1 1 570F07C8
P 11000 2700
F 0 "C20" H 10900 2600 50  0000 L CNN
F 1 "0.1u" H 10900 2800 50  0000 L CNN
F 2 "Capacitors:CAP_0603" V 11100 2550 28  0001 C BNN
F 3 "" H 10900 2600 60  0001 C CNN
F 4 "0.5" H 11000 2700 60  0001 C CNN "Price"
F 5 "2" H 11100 2800 60  0001 C CNN "SolderPoints"
	1    11000 2700
	1    0    0    1   
$EndComp
$Comp
L C C27
U 1 1 57102AD6
P 14000 4550
F 0 "C27" H 13900 4450 50  0000 L CNN
F 1 "220pF" H 13900 4650 50  0000 L CNN
F 2 "Capacitors:CAP_0603" V 14100 4400 28  0001 C BNN
F 3 "" H 13900 4450 60  0001 C CNN
F 4 "0.5" H 14000 4550 60  0001 C CNN "Price"
F 5 "2" H 14100 4650 60  0001 C CNN "SolderPoints"
F 6 "~" H 14000 4550 60  0001 C CNN "PN"
F 7 "~" H 14000 4550 60  0001 C CNN "URL"
	1    14000 4550
	1    0    0    1   
$EndComp
$Comp
L C C34
U 1 1 57102CEF
P 15500 4550
F 0 "C34" H 15400 4450 50  0000 L CNN
F 1 "220pF" H 15400 4650 50  0000 L CNN
F 2 "Capacitors:CAP_0603" V 15600 4400 28  0001 C BNN
F 3 "" H 15400 4450 60  0001 C CNN
F 4 "0.5" H 15500 4550 60  0001 C CNN "Price"
F 5 "2" H 15600 4650 60  0001 C CNN "SolderPoints"
F 6 "~" H 15500 4550 60  0001 C CNN "PN"
F 7 "~" H 15500 4550 60  0001 C CNN "URL"
	1    15500 4550
	1    0    0    1   
$EndComp
$Comp
L R R27
U 1 1 570FFD0B
P 9550 5450
F 0 "R27" V 9630 5300 50  0000 C CNN
F 1 "100R" V 9550 5450 50  0000 C CNN
F 2 "Resistors:RES_0603" V 9630 5550 28  0001 C CNN
F 3 "" V 9630 5300 60  0000 C CNN
F 4 "0.5" V 9730 5400 60  0001 C CNN "Price"
F 5 "2" V 9830 5500 60  0001 C CNN "SolderPoints"
	1    9550 5450
	0    1    -1   0   
$EndComp
$Comp
L R R28
U 1 1 5710085B
P 9550 5600
F 0 "R28" V 9630 5450 50  0000 C CNN
F 1 "100R" V 9550 5600 50  0000 C CNN
F 2 "Resistors:RES_0603" V 9630 5700 28  0001 C CNN
F 3 "" V 9630 5450 60  0000 C CNN
F 4 "0.5" V 9730 5550 60  0001 C CNN "Price"
F 5 "2" V 9830 5650 60  0001 C CNN "SolderPoints"
	1    9550 5600
	0    1    -1   0   
$EndComp
$Comp
L GND #PWR94
U 1 1 57C2228F
P 13550 1950
F 0 "#PWR94" H 13640 1930 30  0001 C CNN
F 1 "GND" H 13550 1870 30  0001 C CNN
F 2 "" H 13550 1950 60  0001 C CNN
F 3 "" H 13550 1950 60  0001 C CNN
	1    13550 1950
	1    0    0    -1  
$EndComp
$Comp
L BALUN868JOHANSON BLN1
U 1 1 57C222D7
P 13450 1300
F 0 "BLN1" H 13100 1650 60  0000 C CNN
F 1 "BALUN868JOHANSON" H 13450 1550 60  0000 C CNN
F 2 "Radio:BALUN_JOHANSON868" H 13000 1550 60  0001 C CNN
F 3 "" H 13450 1300 60  0000 C CNN
F 4 "0896BM15A0001E" H 13200 1750 60  0001 C CNN "PN"
F 5 "http://onelec.ru/products/0896bm15a0001e-52ab3408-7c12-4b8c-99ab-cc294cdc1e18" H 13300 1850 60  0001 C CNN "URL"
F 6 "6" H 13400 1950 60  0001 C CNN "SolderPoints"
	1    13450 1300
	1    0    0    -1  
$EndComp
Text Notes 13350 850  0    60   ~ 0
Balun
$Comp
L Logo Logo1
U 1 1 57C19988
P 20900 14050
F 0 "Logo1" H 20800 14500 60  0000 C CNN
F 1 "Logo" H 21100 14500 60  0000 C CNN
F 2 "Pictures:Ostranna_16d9_13d5" H 20900 14050 60  0001 C CNN
F 3 "" H 20900 14050 60  0000 C CNN
	1    20900 14050
	1    0    0    -1  
$EndComp
$Comp
L PwrMCU #PWR18
U 1 1 583DE669
P 1850 4150
F 0 "#PWR18" H 1850 4200 30  0001 C CNN
F 1 "PwrMCU" H 1920 4180 30  0000 C CNN
F 2 "" H 1850 4150 60  0000 C CNN
F 3 "" H 1850 4150 60  0000 C CNN
	1    1850 4150
	1    0    0    -1  
$EndComp
$Comp
L PwrMCU #PWR2
U 1 1 583DEC78
P 750 3350
F 0 "#PWR2" H 750 3400 30  0001 C CNN
F 1 "PwrMCU" H 820 3380 30  0000 C CNN
F 2 "" H 750 3350 60  0000 C CNN
F 3 "" H 750 3350 60  0000 C CNN
	1    750  3350
	-1   0    0    -1  
$EndComp
$Comp
L TSOP48xx Q1
U 1 1 583EC643
P 1100 5750
F 0 "Q1" H 900 6050 60  0000 C CNN
F 1 "TSOP48xx" H 1250 6050 60  0000 C CNN
F 2 "Sensors:TSOP48xx" H 800 5950 60  0001 C CNN
F 3 "" H 900 6050 60  0001 C CNN
F 4 "3" H 1000 6150 60  0001 C CNN "SolderPointsDIP"
F 5 "0" H 1100 6250 60  0001 C CNN "SolderPoints"
	1    1100 5750
	1    0    0    -1  
$EndComp
$Comp
L GND #PWR5
U 1 1 583ED874
P 1100 6450
F 0 "#PWR5" H 1190 6430 30  0001 C CNN
F 1 "GND" H 1100 6370 30  0001 C CNN
F 2 "" H 1100 6450 60  0000 C CNN
F 3 "" H 1100 6450 60  0000 C CNN
	1    1100 6450
	1    0    0    -1  
$EndComp
$Comp
L GND #PWR14
U 1 1 583EF186
P 1600 6450
F 0 "#PWR14" H 1690 6430 30  0001 C CNN
F 1 "GND" H 1600 6370 30  0001 C CNN
F 2 "" H 1600 6450 60  0001 C CNN
F 3 "" H 1600 6450 60  0001 C CNN
	1    1600 6450
	1    0    0    -1  
$EndComp
$Comp
L C C1
U 1 1 583EF18F
P 1600 6150
F 0 "C1" H 1500 6050 50  0000 L CNN
F 1 "0.1u" H 1500 6250 50  0000 L CNN
F 2 "Capacitors:CAP_0603" V 1700 6000 28  0001 C BNN
F 3 "" H 1500 6050 60  0001 C CNN
F 4 "0.5" H 1600 6150 60  0001 C CNN "Price"
F 5 "2" H 1700 6250 60  0001 C CNN "SolderPoints"
	1    1600 6150
	1    0    0    1   
$EndComp
$Comp
L R R4
U 1 1 583F1707
P 1950 5900
F 0 "R4" V 2030 5750 50  0000 C CNN
F 1 "51R" V 1950 5900 50  0000 C CNN
F 2 "Resistors:RES_0603" V 2030 6000 28  0001 C CNN
F 3 "" V 2030 5750 60  0000 C CNN
F 4 "0.5" V 2130 5850 60  0001 C CNN "Price"
F 5 "2" V 2230 5950 60  0001 C CNN "SolderPoints"
	1    1950 5900
	0    1    -1   0   
$EndComp
Text Notes 1400 10150 2    60   ~ 0
Power\nConnector
$Comp
L CONN_2 XL1
U 1 1 583F8E31
P 1050 10500
F 0 "XL1" V 1000 10500 40  0000 C CNN
F 1 "CONN_2" V 1100 10500 40  0000 C CNN
F 2 "Connectors:XY301V-A-2P" H 1050 10500 60  0001 C CNN
F 3 "" H 1050 10500 60  0001 C CNN
F 4 "XY301V-A-2P" V 1050 10500 60  0001 C CNN "PN"
F 5 "8" V 1050 10500 60  0001 C CNN "Price"
F 6 "2" V 1050 10500 60  0001 C CNN "SolderPointsDIP"
	1    1050 10500
	-1   0    0    -1  
$EndComp
$Comp
L PwrUnst #PWR20
U 1 1 583FA0BB
P 2100 10400
F 0 "#PWR20" H 2100 10360 30  0001 C CNN
F 1 "PwrUnst" H 2180 10430 30  0000 C CNN
F 2 "" H 2100 10400 60  0000 C CNN
F 3 "" H 2100 10400 60  0000 C CNN
	1    2100 10400
	1    0    0    -1  
$EndComp
$Comp
L +3.3V #PWR21
U 1 1 583FD432
P 2300 5900
F 0 "#PWR21" H 2300 5860 30  0001 C CNN
F 1 "+3.3V" H 2380 5930 30  0000 C CNN
F 2 "" H 2300 5900 60  0000 C CNN
F 3 "" H 2300 5900 60  0000 C CNN
	1    2300 5900
	1    0    0    -1  
$EndComp
Text Label 3500 1550 0    60   ~ 0
IR_RCVR
$Comp
L TSOP48xx Q2
U 1 1 583FEE09
P 1100 7050
F 0 "Q2" H 900 7350 60  0000 C CNN
F 1 "TSOP48xx" H 1250 7350 60  0000 C CNN
F 2 "Sensors:TSOP48xx" H 800 7250 60  0001 C CNN
F 3 "" H 900 7350 60  0001 C CNN
F 4 "3" H 1000 7450 60  0001 C CNN "SolderPointsDIP"
F 5 "0" H 1100 7550 60  0001 C CNN "SolderPoints"
	1    1100 7050
	1    0    0    -1  
$EndComp
$Comp
L GND #PWR6
U 1 1 583FEE0F
P 1100 7750
F 0 "#PWR6" H 1190 7730 30  0001 C CNN
F 1 "GND" H 1100 7670 30  0001 C CNN
F 2 "" H 1100 7750 60  0000 C CNN
F 3 "" H 1100 7750 60  0000 C CNN
	1    1100 7750
	1    0    0    -1  
$EndComp
$Comp
L GND #PWR15
U 1 1 583FEE16
P 1600 7750
F 0 "#PWR15" H 1690 7730 30  0001 C CNN
F 1 "GND" H 1600 7670 30  0001 C CNN
F 2 "" H 1600 7750 60  0001 C CNN
F 3 "" H 1600 7750 60  0001 C CNN
	1    1600 7750
	1    0    0    -1  
$EndComp
$Comp
L C C2
U 1 1 583FEE1F
P 1600 7450
F 0 "C2" H 1500 7350 50  0000 L CNN
F 1 "0.1u" H 1500 7550 50  0000 L CNN
F 2 "Capacitors:CAP_0603" V 1700 7300 28  0001 C BNN
F 3 "" H 1500 7350 60  0001 C CNN
F 4 "0.5" H 1600 7450 60  0001 C CNN "Price"
F 5 "2" H 1700 7550 60  0001 C CNN "SolderPoints"
	1    1600 7450
	1    0    0    1   
$EndComp
$Comp
L R R5
U 1 1 583FEE29
P 1950 7200
F 0 "R5" V 2030 7050 50  0000 C CNN
F 1 "51R" V 1950 7200 50  0000 C CNN
F 2 "Resistors:RES_0603" V 2030 7300 28  0001 C CNN
F 3 "" V 2030 7050 60  0000 C CNN
F 4 "0.5" V 2130 7150 60  0001 C CNN "Price"
F 5 "2" V 2230 7250 60  0001 C CNN "SolderPoints"
	1    1950 7200
	0    1    -1   0   
$EndComp
$Comp
L +3.3V #PWR22
U 1 1 583FEE30
P 2300 7200
F 0 "#PWR22" H 2300 7160 30  0001 C CNN
F 1 "+3.3V" H 2380 7230 30  0000 C CNN
F 2 "" H 2300 7200 60  0000 C CNN
F 3 "" H 2300 7200 60  0000 C CNN
	1    2300 7200
	1    0    0    -1  
$EndComp
Text Label 1800 6950 0    60   ~ 0
IR_RCVR
$Comp
L TSOP48xx Q4
U 1 1 583FFB7D
P 3000 5750
F 0 "Q4" H 2800 6050 60  0000 C CNN
F 1 "TSOP48xx" H 3150 6050 60  0000 C CNN
F 2 "Sensors:TSOP48xx" H 2700 5950 60  0001 C CNN
F 3 "" H 2800 6050 60  0001 C CNN
F 4 "3" H 2900 6150 60  0001 C CNN "SolderPointsDIP"
F 5 "0" H 3000 6250 60  0001 C CNN "SolderPoints"
	1    3000 5750
	1    0    0    -1  
$EndComp
$Comp
L GND #PWR28
U 1 1 583FFB83
P 3000 6450
F 0 "#PWR28" H 3090 6430 30  0001 C CNN
F 1 "GND" H 3000 6370 30  0001 C CNN
F 2 "" H 3000 6450 60  0000 C CNN
F 3 "" H 3000 6450 60  0000 C CNN
	1    3000 6450
	1    0    0    -1  
$EndComp
$Comp
L GND #PWR30
U 1 1 583FFB8A
P 3500 6450
F 0 "#PWR30" H 3590 6430 30  0001 C CNN
F 1 "GND" H 3500 6370 30  0001 C CNN
F 2 "" H 3500 6450 60  0001 C CNN
F 3 "" H 3500 6450 60  0001 C CNN
	1    3500 6450
	1    0    0    -1  
$EndComp
$Comp
L C C6
U 1 1 583FFB93
P 3500 6150
F 0 "C6" H 3400 6050 50  0000 L CNN
F 1 "0.1u" H 3400 6250 50  0000 L CNN
F 2 "Capacitors:CAP_0603" V 3600 6000 28  0001 C BNN
F 3 "" H 3400 6050 60  0001 C CNN
F 4 "0.5" H 3500 6150 60  0001 C CNN "Price"
F 5 "2" H 3600 6250 60  0001 C CNN "SolderPoints"
	1    3500 6150
	1    0    0    1   
$EndComp
$Comp
L R R11
U 1 1 583FFB9D
P 3850 5900
F 0 "R11" V 3930 5750 50  0000 C CNN
F 1 "51R" V 3850 5900 50  0000 C CNN
F 2 "Resistors:RES_0603" V 3930 6000 28  0001 C CNN
F 3 "" V 3930 5750 60  0000 C CNN
F 4 "0.5" V 4030 5850 60  0001 C CNN "Price"
F 5 "2" V 4130 5950 60  0001 C CNN "SolderPoints"
	1    3850 5900
	0    1    -1   0   
$EndComp
$Comp
L +3.3V #PWR34
U 1 1 583FFBA4
P 4200 5900
F 0 "#PWR34" H 4200 5860 30  0001 C CNN
F 1 "+3.3V" H 4280 5930 30  0000 C CNN
F 2 "" H 4200 5900 60  0000 C CNN
F 3 "" H 4200 5900 60  0000 C CNN
	1    4200 5900
	1    0    0    -1  
$EndComp
Text Label 3700 5650 0    60   ~ 0
IR_RCVR
$Comp
L TSOP48xx Q5
U 1 1 583FFBAF
P 3000 7050
F 0 "Q5" H 2800 7350 60  0000 C CNN
F 1 "TSOP48xx" H 3150 7350 60  0000 C CNN
F 2 "Sensors:TSOP48xx" H 2700 7250 60  0001 C CNN
F 3 "" H 2800 7350 60  0001 C CNN
F 4 "3" H 2900 7450 60  0001 C CNN "SolderPointsDIP"
F 5 "0" H 3000 7550 60  0001 C CNN "SolderPoints"
	1    3000 7050
	1    0    0    -1  
$EndComp
$Comp
L GND #PWR29
U 1 1 583FFBB5
P 3000 7750
F 0 "#PWR29" H 3090 7730 30  0001 C CNN
F 1 "GND" H 3000 7670 30  0001 C CNN
F 2 "" H 3000 7750 60  0000 C CNN
F 3 "" H 3000 7750 60  0000 C CNN
	1    3000 7750
	1    0    0    -1  
$EndComp
$Comp
L GND #PWR31
U 1 1 583FFBBC
P 3500 7750
F 0 "#PWR31" H 3590 7730 30  0001 C CNN
F 1 "GND" H 3500 7670 30  0001 C CNN
F 2 "" H 3500 7750 60  0001 C CNN
F 3 "" H 3500 7750 60  0001 C CNN
	1    3500 7750
	1    0    0    -1  
$EndComp
$Comp
L C C7
U 1 1 583FFBC5
P 3500 7450
F 0 "C7" H 3400 7350 50  0000 L CNN
F 1 "0.1u" H 3400 7550 50  0000 L CNN
F 2 "Capacitors:CAP_0603" V 3600 7300 28  0001 C BNN
F 3 "" H 3400 7350 60  0001 C CNN
F 4 "0.5" H 3500 7450 60  0001 C CNN "Price"
F 5 "2" H 3600 7550 60  0001 C CNN "SolderPoints"
	1    3500 7450
	1    0    0    1   
$EndComp
$Comp
L R R12
U 1 1 583FFBCF
P 3850 7200
F 0 "R12" V 3930 7050 50  0000 C CNN
F 1 "51R" V 3850 7200 50  0000 C CNN
F 2 "Resistors:RES_0603" V 3930 7300 28  0001 C CNN
F 3 "" V 3930 7050 60  0000 C CNN
F 4 "0.5" V 4030 7150 60  0001 C CNN "Price"
F 5 "2" V 4130 7250 60  0001 C CNN "SolderPoints"
	1    3850 7200
	0    1    -1   0   
$EndComp
$Comp
L +3.3V #PWR35
U 1 1 583FFBD6
P 4200 7200
F 0 "#PWR35" H 4200 7160 30  0001 C CNN
F 1 "+3.3V" H 4280 7230 30  0000 C CNN
F 2 "" H 4200 7200 60  0000 C CNN
F 3 "" H 4200 7200 60  0000 C CNN
	1    4200 7200
	1    0    0    -1  
$EndComp
Text Label 3700 6950 0    60   ~ 0
IR_RCVR
Text Notes 2100 5200 0    60   ~ 0
IR Receivers
$Comp
L LED_5050 Q14
U 1 1 5840CD89
P 10750 5600
F 0 "Q14" H 11100 5950 60  0000 C CNN
F 1 "LED_5050" H 10700 5950 60  0000 C CNN
F 2 "LEDs:LED_5050" H 10450 5850 60  0001 C CNN
F 3 "" H 10550 5950 60  0001 C CNN
F 4 "7" H 10650 6050 60  0001 C CNN "Price"
F 5 "6" H 10750 6150 60  0001 C CNN "SolderPoints"
	1    10750 5600
	-1   0    0    -1  
$EndComp
$Comp
L CONN_4 XL6
U 1 1 5840CDA0
P 9850 6150
F 0 "XL6" V 9800 6150 40  0000 C CNN
F 1 "CONN_4" V 9900 6150 40  0000 C CNN
F 2 "Connectors:PLS-4" V 9700 6050 60  0001 C CNN
F 3 "" V 9800 6150 60  0001 C CNN
F 4 "0" V 10200 6550 60  0001 C CNN "SolderPoints"
F 5 "4" V 10300 6650 60  0001 C CNN "SolderPointsDIP"
	1    9850 6150
	1    0    0    -1  
$EndComp
Text Notes 9200 6200 0    60   ~ 0
Outer LED \nconnection
Text Notes 7700 5150 0    60   ~ 0
Indication
$Comp
L ST1S10 DA1
U 1 1 58411D7C
P 6900 10000
F 0 "DA1" H 6500 10350 60  0000 C CNN
F 1 "ST1S10" H 7100 10350 60  0000 C CNN
F 2 "SO_DIL_TSSOP:SO8HEATSINK" H 6900 10000 60  0001 C CNN
F 3 "" H 6900 10000 60  0000 C CNN
	1    6900 10000
	1    0    0    -1  
$EndComp
$Comp
L +5V #PWR60
U 1 1 58411D8F
P 9300 9800
F 0 "#PWR60" H 9300 9760 30  0001 C CNN
F 1 "+5V" H 9380 9830 30  0000 C CNN
F 2 "~" H 9300 9800 60  0000 C CNN
F 3 "~" H 9300 9800 60  0000 C CNN
	1    9300 9800
	1    0    0    -1  
$EndComp
Text Notes 6750 8950 0    60   ~ 0
6...12V -> 4.8V
Text Notes 7400 9300 0    60   ~ 0
Solder if no need in BUCK
$Comp
L Fuse0R F1
U 1 1 58411E03
P 7150 9300
F 0 "F1" V 7080 9300 50  0000 C CNN
F 1 "FUSE0R" V 7150 9300 50  0000 C CNN
F 2 "Resistors:RES_0603_FUSE" H 7150 9300 60  0001 C CNN
F 3 "~" H 7150 9300 60  0000 C CNN
	1    7150 9300
	0    1    1    0   
$EndComp
$Comp
L PWR_FLAG #FLG3
U 1 1 58411E41
P 9150 9600
F 0 "#FLG3" H 9150 9870 30  0001 C CNN
F 1 "PWR_FLAG" H 9150 9830 30  0000 C CNN
F 2 "~" H 9150 9600 60  0000 C CNN
F 3 "~" H 9150 9600 60  0000 C CNN
	1    9150 9600
	1    0    0    -1  
$EndComp
$Comp
L C C8
U 1 1 58415659
P 5750 10350
F 0 "C8" H 5650 10250 50  0000 L CNN
F 1 "10u" H 5650 10450 50  0000 L CNN
F 2 "Capacitors:CAP_0805" V 5850 10200 28  0001 C BNN
F 3 "" H 5650 10250 60  0001 C CNN
F 4 "4" H 5750 10350 60  0001 C CNN "Price"
F 5 "2" H 5850 10450 60  0001 C CNN "SolderPoints"
F 6 "GRM21BR61C106KE15L" H 5750 10350 60  0001 C CNN "PN"
	1    5750 10350
	1    0    0    -1  
$EndComp
$Comp
L C C9
U 1 1 58418C93
P 6000 10350
F 0 "C9" H 5900 10250 50  0000 L CNN
F 1 "1u" H 5900 10450 50  0000 L CNN
F 2 "Capacitors:CAP_0603" V 6100 10200 28  0001 C BNN
F 3 "" H 5900 10250 60  0001 C CNN
F 4 "0.5" H 6000 10350 60  0001 C CNN "Price"
F 5 "2" H 6100 10450 60  0001 C CNN "SolderPoints"
	1    6000 10350
	1    0    0    1   
$EndComp
$Comp
L PwrUnst #PWR36
U 1 1 58419AB3
P 5300 9800
F 0 "#PWR36" H 5300 9760 30  0001 C CNN
F 1 "PwrUnst" H 5380 9830 30  0000 C CNN
F 2 "" H 5300 9800 60  0000 C CNN
F 3 "" H 5300 9800 60  0000 C CNN
	1    5300 9800
	-1   0    0    -1  
$EndComp
$Comp
L PwrUnst #PWR42
U 1 1 58419BB5
P 5950 9900
F 0 "#PWR42" H 5950 9860 30  0001 C CNN
F 1 "PwrUnst" H 6030 9930 30  0000 C CNN
F 2 "" H 5950 9900 60  0000 C CNN
F 3 "" H 5950 9900 60  0000 C CNN
	1    5950 9900
	-1   0    0    -1  
$EndComp
$Comp
L L L1
U 1 1 5841B79C
P 7850 9800
F 0 "L1" V 7750 9660 40  0000 C CNN
F 1 "10u" V 7750 9800 40  0000 C CNN
F 2 "Inductors:IND_SDR0604" V 7910 9810 40  0001 C CNN
F 3 "" V 7750 9660 60  0001 C CNN
F 4 "4" V 7850 9760 60  0001 C CNN "Price"
F 5 "2" V 7950 9860 60  0001 C CNN "SolderPoints"
F 6 "SR0604100MLB" V 7850 9800 60  0001 C CNN "PN"
	1    7850 9800
	0    1    1    0   
$EndComp
$Comp
L R R21
U 1 1 5841D6A7
P 8150 10100
F 0 "R21" H 8250 10050 50  0000 C CNN
F 1 "10k" V 8150 10100 50  0000 C CNN
F 2 "Resistors:RES_0603" V 8230 10200 28  0001 C CNN
F 3 "" V 8230 9950 60  0000 C CNN
F 4 "0.5" V 8330 10050 60  0001 C CNN "Price"
F 5 "2" V 8430 10150 60  0001 C CNN "SolderPoints"
	1    8150 10100
	1    0    0    -1  
$EndComp
$Comp
L R R22
U 1 1 5841E1CF
P 8150 10700
F 0 "R22" H 8250 10650 50  0000 C CNN
F 1 "2k" V 8150 10700 50  0000 C CNN
F 2 "Resistors:RES_0603" V 8230 10800 28  0001 C CNN
F 3 "" V 8230 10550 60  0000 C CNN
F 4 "0.5" V 8330 10650 60  0001 C CNN "Price"
F 5 "2" V 8430 10750 60  0001 C CNN "SolderPoints"
	1    8150 10700
	1    0    0    -1  
$EndComp
$Comp
L C C10
U 1 1 584220A4
P 8500 10100
F 0 "C10" H 8400 10000 50  0000 L CNN
F 1 "0.1u" H 8400 10200 50  0000 L CNN
F 2 "Capacitors:CAP_0603" V 8600 9950 28  0001 C BNN
F 3 "" H 8400 10000 60  0001 C CNN
F 4 "0.5" H 8500 10100 60  0001 C CNN "Price"
F 5 "2" H 8600 10200 60  0001 C CNN "SolderPoints"
	1    8500 10100
	1    0    0    1   
$EndComp
$Comp
L C C11
U 1 1 58423B87
P 8750 10100
F 0 "C11" H 8650 10000 50  0000 L CNN
F 1 "10u" H 8650 10200 50  0000 L CNN
F 2 "Capacitors:CAP_0805" V 8850 9950 28  0001 C BNN
F 3 "" H 8650 10000 60  0001 C CNN
F 4 "4" H 8750 10100 60  0001 C CNN "Price"
F 5 "2" H 8850 10200 60  0001 C CNN "SolderPoints"
F 6 "GRM21BR61C106KE15L" H 8750 10100 60  0001 C CNN "PN"
	1    8750 10100
	1    0    0    1   
$EndComp
$Comp
L CP C12
U 1 1 5842D3EC
P 9000 10100
F 0 "C12" H 9050 10200 50  0000 L CNN
F 1 "100u" H 8950 10000 50  0000 L CNN
F 2 "Capacitors:SMD_D6d3" H 8950 10100 60  0001 C CNN
F 3 "" H 9050 10200 60  0001 C CNN
F 4 "5.35" H 9150 10300 60  0001 C CNN "Price"
F 5 "2" H 9250 10400 60  0001 C CNN "SolderPoints"
F 6 "CA016M0100RED-0605" H 9450 10600 60  0001 C CNN "PN"
	1    9000 10100
	-1   0    0    -1  
$EndComp
$Comp
L NCP583SQ DA2
U 1 1 58433839
P 10850 9900
F 0 "DA2" H 10700 10250 50  0000 C CNN
F 1 "NCP583SQ" H 10850 10150 50  0000 C CNN
F 2 "SOT:SC82AB" H 10600 10150 60  0001 C CNN
F 3 "" H 10700 10250 60  0001 C CNN
F 4 "4" H 10800 10350 60  0001 C CNN "SolderPoints"
	1    10850 9900
	1    0    0    -1  
$EndComp
$Comp
L C C13
U 1 1 58435F1C
P 10150 10100
F 0 "C13" H 10050 10000 50  0000 L CNN
F 1 "1u" H 10050 10200 50  0000 L CNN
F 2 "Capacitors:CAP_0603" V 10250 9950 28  0001 C BNN
F 3 "" H 10050 10000 60  0001 C CNN
F 4 "0.5" H 10150 10100 60  0001 C CNN "Price"
F 5 "2" H 10250 10200 60  0001 C CNN "SolderPoints"
	1    10150 10100
	1    0    0    1   
$EndComp
$Comp
L C C22
U 1 1 584360D0
P 11500 10100
F 0 "C22" H 11400 10000 50  0000 L CNN
F 1 "1u" H 11400 10200 50  0000 L CNN
F 2 "Capacitors:CAP_0603" V 11600 9950 28  0001 C BNN
F 3 "" H 11400 10000 60  0001 C CNN
F 4 "0.5" H 11500 10100 60  0001 C CNN "Price"
F 5 "2" H 11600 10200 60  0001 C CNN "SolderPoints"
	1    11500 10100
	1    0    0    1   
$EndComp
$Comp
L +5V #PWR64
U 1 1 584361D5
P 10050 9800
F 0 "#PWR64" H 10050 9760 30  0001 C CNN
F 1 "+5V" H 10130 9830 30  0000 C CNN
F 2 "~" H 10050 9800 60  0000 C CNN
F 3 "~" H 10050 9800 60  0000 C CNN
	1    10050 9800
	-1   0    0    -1  
$EndComp
$Comp
L GND #PWR65
U 1 1 584367BF
P 10150 10400
F 0 "#PWR65" H 10240 10380 30  0001 C CNN
F 1 "GND" H 10150 10320 30  0001 C CNN
F 2 "" H 10150 10400 60  0000 C CNN
F 3 "" H 10150 10400 60  0000 C CNN
	1    10150 10400
	1    0    0    -1  
$EndComp
$Comp
L GND #PWR79
U 1 1 5843687B
P 11250 10400
F 0 "#PWR79" H 11340 10380 30  0001 C CNN
F 1 "GND" H 11250 10320 30  0001 C CNN
F 2 "" H 11250 10400 60  0000 C CNN
F 3 "" H 11250 10400 60  0000 C CNN
	1    11250 10400
	1    0    0    -1  
$EndComp
$Comp
L GND #PWR82
U 1 1 58436937
P 11500 10400
F 0 "#PWR82" H 11590 10380 30  0001 C CNN
F 1 "GND" H 11500 10320 30  0001 C CNN
F 2 "" H 11500 10400 60  0000 C CNN
F 3 "" H 11500 10400 60  0000 C CNN
	1    11500 10400
	1    0    0    -1  
$EndComp
$Comp
L +3.3V #PWR83
U 1 1 58436D9C
P 11600 9800
F 0 "#PWR83" H 11600 9760 30  0001 C CNN
F 1 "+3.3V" H 11680 9830 30  0000 C CNN
F 2 "" H 11600 9800 60  0000 C CNN
F 3 "" H 11600 9800 60  0000 C CNN
	1    11600 9800
	1    0    0    -1  
$EndComp
Text Notes 10700 9350 0    60   ~ 0
5V -> 3.3V
$Comp
L LED D7
U 1 1 58439643
P 12150 6700
F 0 "D7" H 12250 6840 50  0000 C CNN
F 1 "LED" H 12070 6840 50  0000 C CNN
F 2 "LEDs:LED_0603" H 12150 6740 60  0001 C CNN
F 3 "" H 12250 6840 60  0001 C CNN
F 4 "4" H 12350 6940 60  0001 C CNN "Price"
F 5 "2" H 12450 7040 60  0001 C CNN "SolderPoints"
F 6 "Green" H 12150 6550 50  0000 C CIN "Color"
F 7 "L-C191KGCT" H 12150 6700 60  0001 C CNN "PN"
	1    12150 6700
	0    1    1    0   
$EndComp
$Comp
L GND #PWR88
U 1 1 58439C7D
P 12150 7000
F 0 "#PWR88" H 12240 6980 30  0001 C CNN
F 1 "GND" H 12150 6920 30  0001 C CNN
F 2 "" H 12150 7000 60  0000 C CNN
F 3 "" H 12150 7000 60  0000 C CNN
	1    12150 7000
	1    0    0    -1  
$EndComp
Text Label 1800 5650 0    60   ~ 0
IR_RCVR
Text Label 1700 8050 0    60   ~ 0
IR_RCVR
$Comp
L R R6
U 1 1 5843C0F5
P 2400 8050
F 0 "R6" V 2480 7900 50  0000 C CNN
F 1 "10k" V 2400 8050 50  0000 C CNN
F 2 "Resistors:RES_0603" V 2480 8150 28  0001 C CNN
F 3 "" V 2480 7900 60  0000 C CNN
F 4 "0.5" V 2580 8000 60  0001 C CNN "Price"
F 5 "2" V 2680 8100 60  0001 C CNN "SolderPoints"
	1    2400 8050
	0    1    -1   0   
$EndComp
$Comp
L +3.3V #PWR27
U 1 1 5843C0FB
P 2750 8050
F 0 "#PWR27" H 2750 8010 30  0001 C CNN
F 1 "+3.3V" H 2830 8080 30  0000 C CNN
F 2 "" H 2750 8050 60  0000 C CNN
F 3 "" H 2750 8050 60  0000 C CNN
	1    2750 8050
	1    0    0    -1  
$EndComp
$Comp
L R R35
U 1 1 5843D5D8
P 12150 6150
F 0 "R35" V 12230 6000 50  0000 C CNN
F 1 "10k" V 12150 6150 50  0000 C CNN
F 2 "Resistors:RES_0603" V 12230 6250 28  0001 C CNN
F 3 "" V 12230 6000 60  0000 C CNN
F 4 "0.5" V 12330 6100 60  0001 C CNN "Price"
F 5 "2" V 12430 6200 60  0001 C CNN "SolderPoints"
	1    12150 6150
	1    0    0    1   
$EndComp
$Comp
L +3.3V #PWR87
U 1 1 5843DE82
P 12150 5800
F 0 "#PWR87" H 12150 5760 30  0001 C CNN
F 1 "+3.3V" H 12230 5830 30  0000 C CNN
F 2 "" H 12150 5800 60  0000 C CNN
F 3 "" H 12150 5800 60  0000 C CNN
	1    12150 5800
	0    -1   -1   0   
$EndComp
Text Notes 11950 5550 0    60   ~ 0
PowerOn
Text Label 5500 8350 2    60   ~ 0
RED_SINGLE
Text Label 7950 7100 2    60   ~ 0
LED1
Text Label 7950 7550 2    60   ~ 0
LED2
Text Label 10100 7100 2    60   ~ 0
LED3
Text Label 10100 7550 2    60   ~ 0
LED4
$Comp
L R R29
U 1 1 58447F92
P 9550 5750
F 0 "R29" V 9630 5600 50  0000 C CNN
F 1 "100R" V 9550 5750 50  0000 C CNN
F 2 "Resistors:RES_0603" V 9630 5850 28  0001 C CNN
F 3 "" V 9630 5600 60  0000 C CNN
F 4 "0.5" V 9730 5700 60  0001 C CNN "Price"
F 5 "2" V 9830 5800 60  0001 C CNN "SolderPoints"
	1    9550 5750
	0    1    -1   0   
$EndComp
$Comp
L +5V #PWR80
U 1 1 5844D16D
P 11350 5600
F 0 "#PWR80" H 11350 5560 30  0001 C CNN
F 1 "+5V" H 11430 5630 30  0000 C CNN
F 2 "" H 11350 5600 60  0000 C CNN
F 3 "" H 11350 5600 60  0000 C CNN
	1    11350 5600
	1    0    0    -1  
$EndComp
$Comp
L LED D4
U 1 1 5844EAD1
P 8750 7550
F 0 "D4" H 8850 7690 50  0000 C CNN
F 1 "LED" H 8670 7690 50  0000 C CNN
F 2 "LEDs:LED_Through-Hole-5mm-HOR" H 8750 7590 60  0001 C CNN
F 3 "" H 8850 7690 60  0001 C CNN
F 4 "4" H 8950 7790 60  0001 C CNN "Price"
F 5 "2" H 9050 7890 60  0001 C CNN "SolderPoints"
F 6 "Yellow" H 8750 7400 50  0000 C CIN "Color"
F 7 "FYL-5013UYC" H 8750 7550 60  0001 C CNN "PN"
	1    8750 7550
	1    0    0    -1  
$EndComp
$Comp
L LED D2
U 1 1 5844F3B7
P 5850 7100
F 0 "D2" H 5950 7240 50  0000 C CNN
F 1 "LED" H 5770 7240 50  0000 C CNN
F 2 "LEDs:LED_Through-Hole-5mm-HOR" H 5850 7140 60  0001 C CNN
F 3 "" H 5950 7240 60  0001 C CNN
F 4 "4" H 6050 7340 60  0001 C CNN "Price"
F 5 "2" H 6150 7440 60  0001 C CNN "SolderPoints"
F 6 "Red" H 5850 6950 50  0000 C CIN "Color"
	1    5850 7100
	0    1    1    0   
$EndComp
$Comp
L +5V #PWR40
U 1 1 58453401
P 5850 6850
F 0 "#PWR40" H 5850 6810 30  0001 C CNN
F 1 "+5V" H 5930 6880 30  0000 C CNN
F 2 "" H 5850 6850 60  0000 C CNN
F 3 "" H 5850 6850 60  0000 C CNN
	1    5850 6850
	0    -1   -1   0   
$EndComp
$Comp
L R R17
U 1 1 584547CA
P 5850 7600
F 0 "R17" V 5930 7450 50  0000 C CNN
F 1 "100R" V 5850 7600 50  0000 C CNN
F 2 "Resistors:RES_0603" V 5930 7700 28  0001 C CNN
F 3 "" V 5930 7450 60  0000 C CNN
F 4 "0.5" V 6030 7550 60  0001 C CNN "Price"
F 5 "2" V 6130 7650 60  0001 C CNN "SolderPoints"
	1    5850 7600
	1    0    0    1   
$EndComp
$Comp
L NPN Q12
U 1 1 5845F15D
P 8700 6100
F 0 "Q12" H 8900 6150 60  0000 C CNN
F 1 "BC848" H 8950 6050 60  0000 C CNN
F 2 "SOT:SOT23-3" H 8800 6050 60  0001 C CNN
F 3 "" H 8900 6150 60  0001 C CNN
F 4 "3" H 9000 6250 60  0001 C CNN "SolderPoints"
	1    8700 6100
	1    0    0    -1  
$EndComp
$Comp
L NPN Q10
U 1 1 5845F25C
P 7450 6100
F 0 "Q10" H 7650 6150 60  0000 C CNN
F 1 "BC848" H 7700 6050 60  0000 C CNN
F 2 "SOT:SOT23-3" H 7550 6050 60  0001 C CNN
F 3 "" H 7650 6150 60  0001 C CNN
F 4 "3" H 7750 6250 60  0001 C CNN "SolderPoints"
	1    7450 6100
	1    0    0    -1  
$EndComp
$Comp
L NPN Q8
U 1 1 5845F361
P 6200 6100
F 0 "Q8" H 6400 6150 60  0000 C CNN
F 1 "BC848" H 6450 6050 60  0000 C CNN
F 2 "SOT:SOT23-3" H 6300 6050 60  0001 C CNN
F 3 "" H 6400 6150 60  0001 C CNN
F 4 "3" H 6500 6250 60  0001 C CNN "SolderPoints"
	1    6200 6100
	1    0    0    -1  
$EndComp
$Comp
L R R24
U 1 1 58465C74
P 8200 6100
F 0 "R24" V 8280 5950 50  0000 C CNN
F 1 "1k" V 8200 6100 50  0000 C CNN
F 2 "Resistors:RES_0603" V 8280 6200 28  0001 C CNN
F 3 "" V 8280 5950 60  0000 C CNN
F 4 "0.5" V 8380 6050 60  0001 C CNN "Price"
F 5 "2" V 8480 6150 60  0001 C CNN "SolderPoints"
	1    8200 6100
	0    1    -1   0   
$EndComp
$Comp
L R R19
U 1 1 5846650C
P 6950 6100
F 0 "R19" V 7030 5950 50  0000 C CNN
F 1 "1k" V 6950 6100 50  0000 C CNN
F 2 "Resistors:RES_0603" V 7030 6200 28  0001 C CNN
F 3 "" V 7030 5950 60  0000 C CNN
F 4 "0.5" V 7130 6050 60  0001 C CNN "Price"
F 5 "2" V 7230 6150 60  0001 C CNN "SolderPoints"
	1    6950 6100
	0    1    -1   0   
$EndComp
$Comp
L R R16
U 1 1 58466A50
P 5700 6100
F 0 "R16" V 5780 5950 50  0000 C CNN
F 1 "1k" V 5700 6100 50  0000 C CNN
F 2 "Resistors:RES_0603" V 5780 6200 28  0001 C CNN
F 3 "" V 5780 5950 60  0000 C CNN
F 4 "0.5" V 5880 6050 60  0001 C CNN "Price"
F 5 "2" V 5980 6150 60  0001 C CNN "SolderPoints"
	1    5700 6100
	0    1    -1   0   
$EndComp
$Comp
L R R20
U 1 1 5846C6C4
P 8250 7100
F 0 "R20" V 8330 6950 50  0000 C CNN
F 1 "100R" V 8250 7100 50  0000 C CNN
F 2 "Resistors:RES_0603" V 8330 7200 28  0001 C CNN
F 3 "" V 8330 6950 60  0000 C CNN
F 4 "0.5" V 8430 7050 60  0001 C CNN "Price"
F 5 "2" V 8530 7150 60  0001 C CNN "SolderPoints"
	1    8250 7100
	0    -1   -1   0   
$EndComp
$Comp
L R R25
U 1 1 5846C927
P 8250 7550
F 0 "R25" V 8330 7400 50  0000 C CNN
F 1 "100R" V 8250 7550 50  0000 C CNN
F 2 "Resistors:RES_0603" V 8330 7650 28  0001 C CNN
F 3 "" V 8330 7400 60  0000 C CNN
F 4 "0.5" V 8430 7500 60  0001 C CNN "Price"
F 5 "2" V 8530 7600 60  0001 C CNN "SolderPoints"
	1    8250 7550
	0    -1   -1   0   
$EndComp
$Comp
L R R31
U 1 1 5846C95C
P 10400 7100
F 0 "R31" V 10480 6950 50  0000 C CNN
F 1 "100R" V 10400 7100 50  0000 C CNN
F 2 "Resistors:RES_0603" V 10480 7200 28  0001 C CNN
F 3 "" V 10480 6950 60  0000 C CNN
F 4 "0.5" V 10580 7050 60  0001 C CNN "Price"
F 5 "2" V 10680 7150 60  0001 C CNN "SolderPoints"
	1    10400 7100
	0    -1   -1   0   
$EndComp
$Comp
L R R34
U 1 1 5846D35F
P 10400 7550
F 0 "R34" V 10480 7400 50  0000 C CNN
F 1 "100R" V 10400 7550 50  0000 C CNN
F 2 "Resistors:RES_0603" V 10480 7650 28  0001 C CNN
F 3 "" V 10480 7400 60  0000 C CNN
F 4 "0.5" V 10580 7500 60  0001 C CNN "Price"
F 5 "2" V 10680 7600 60  0001 C CNN "SolderPoints"
	1    10400 7550
	0    -1   -1   0   
$EndComp
$Comp
L LED D3
U 1 1 5846E524
P 8750 7100
F 0 "D3" H 8850 7240 50  0000 C CNN
F 1 "LED" H 8670 7240 50  0000 C CNN
F 2 "LEDs:LED_Through-Hole-5mm-HOR" H 8750 7140 60  0001 C CNN
F 3 "" H 8850 7240 60  0001 C CNN
F 4 "4" H 8950 7340 60  0001 C CNN "Price"
F 5 "2" H 9050 7440 60  0001 C CNN "SolderPoints"
F 6 "Yellow" H 8750 6950 50  0000 C CIN "Color"
F 7 "FYL-5013UYC" H 8750 7100 60  0001 C CNN "PN"
	1    8750 7100
	1    0    0    -1  
$EndComp
$Comp
L LED D6
U 1 1 5846E66B
P 10900 7550
F 0 "D6" H 11000 7690 50  0000 C CNN
F 1 "LED" H 10820 7690 50  0000 C CNN
F 2 "LEDs:LED_Through-Hole-5mm-HOR" H 10900 7590 60  0001 C CNN
F 3 "" H 11000 7690 60  0001 C CNN
F 4 "4" H 11100 7790 60  0001 C CNN "Price"
F 5 "2" H 11200 7890 60  0001 C CNN "SolderPoints"
F 6 "Yellow" H 10900 7400 50  0000 C CIN "Color"
F 7 "FYL-5013UYC" H 10900 7550 60  0001 C CNN "PN"
	1    10900 7550
	1    0    0    -1  
$EndComp
$Comp
L LED D5
U 1 1 5846E674
P 10900 7100
F 0 "D5" H 11000 7240 50  0000 C CNN
F 1 "LED" H 10820 7240 50  0000 C CNN
F 2 "LEDs:LED_Through-Hole-5mm-HOR" H 10900 7140 60  0001 C CNN
F 3 "" H 11000 7240 60  0001 C CNN
F 4 "4" H 11100 7340 60  0001 C CNN "Price"
F 5 "2" H 11200 7440 60  0001 C CNN "SolderPoints"
F 6 "Yellow" H 10900 6950 50  0000 C CIN "Color"
F 7 "FYL-5013UYC" H 10900 7100 60  0001 C CNN "PN"
	1    10900 7100
	1    0    0    -1  
$EndComp
$Comp
L GND #PWR8
U 1 1 58474B95
P 1300 15300
F 0 "#PWR8" H 1390 15280 30  0001 C CNN
F 1 "GND" H 1300 15220 30  0001 C CNN
F 2 "" H 1300 15300 60  0001 C CNN
F 3 "" H 1300 15300 60  0001 C CNN
	1    1300 15300
	-1   0    0    -1  
$EndComp
$Comp
L R R13
U 1 1 58476741
P 6650 13450
F 0 "R13" V 6730 13300 50  0000 C CNN
F 1 "10k" V 6650 13450 50  0000 C CNN
F 2 "Resistors:RES_0603" V 6730 13550 28  0001 C CNN
F 3 "" V 6730 13300 60  0000 C CNN
F 4 "0.5" V 6830 13400 60  0001 C CNN "Price"
F 5 "2" V 6930 13500 60  0001 C CNN "SolderPoints"
	1    6650 13450
	1    0    0    1   
$EndComp
$Comp
L +3.3V #PWR46
U 1 1 58479A20
P 6650 13100
F 0 "#PWR46" H 6650 13060 30  0001 C CNN
F 1 "+3.3V" H 6730 13130 30  0000 C CNN
F 2 "" H 6650 13100 60  0000 C CNN
F 3 "" H 6650 13100 60  0000 C CNN
	1    6650 13100
	0    -1   -1   0   
$EndComp
$Comp
L NPN Q6
U 1 1 5847B3EA
P 6600 14700
F 0 "Q6" H 6350 14850 60  0000 C CNN
F 1 "BC848" H 6400 14550 60  0000 C CNN
F 2 "SOT:SOT23-3" H 6700 14650 60  0001 C CNN
F 3 "" H 6800 14750 60  0001 C CNN
F 4 "3" H 6900 14850 60  0001 C CNN "SolderPoints"
	1    6600 14700
	1    0    0    -1  
$EndComp
$Comp
L GND #PWR47
U 1 1 5847FBD2
P 6650 15000
F 0 "#PWR47" H 6740 14980 30  0001 C CNN
F 1 "GND" H 6650 14920 30  0001 C CNN
F 2 "" H 6650 15000 60  0001 C CNN
F 3 "" H 6650 15000 60  0001 C CNN
	1    6650 15000
	1    0    0    -1  
$EndComp
$Comp
L R R7
U 1 1 5847FF9D
P 6050 14700
F 0 "R7" V 6130 14550 50  0000 C CNN
F 1 "1k" V 6050 14700 50  0000 C CNN
F 2 "Resistors:RES_0603" V 6130 14800 28  0001 C CNN
F 3 "" V 6130 14550 60  0000 C CNN
F 4 "0.5" V 6230 14650 60  0001 C CNN "Price"
F 5 "2" V 6330 14750 60  0001 C CNN "SolderPoints"
	1    6050 14700
	0    1    -1   0   
$EndComp
Text Label 5150 14700 0    60   ~ 0
SignalOutput1
Text Label 8050 3750 0    60   ~ 0
SignalOutput3
Text Label 3800 1950 2    60   ~ 0
BLUE_RGB
Text Label 3800 1150 2    60   ~ 0
RED_RGB
Text Label 3800 1850 2    60   ~ 0
GREEN_RGB
Text Label 8650 2350 2    60   ~ 0
RED_SINGLE
Text Label 8250 3150 2    60   ~ 0
LED1
Text Label 8250 3250 2    60   ~ 0
LED2
Text Label 8250 3350 2    60   ~ 0
LED3
Text Label 8250 3450 2    60   ~ 0
LED4
$Comp
L D_Shottky D1
U 1 1 58488B31
P 1700 10400
F 0 "D1" H 1700 10500 40  0000 C CNN
F 1 "D_Shottky" H 1700 10300 40  0001 C CNN
F 2 "Diodes:SMC_DO214AB" H 1600 10400 60  0001 C CNN
F 3 "" H 1700 10500 60  0001 C CNN
F 4 "11" H 1800 10600 60  0001 C CNN "Price"
F 5 "2" H 1900 10700 60  0001 C CNN "SolderPoints"
F 6 "MBRS340T3G" H 1700 10400 60  0001 C CNN "PN"
	1    1700 10400
	1    0    0    -1  
$EndComp
Text Label 1300 10400 0    60   ~ 0
PWR_IN
$Comp
L R R14
U 1 1 5848BDB6
P 6650 14150
F 0 "R14" V 6730 14000 50  0000 C CNN
F 1 "100R" V 6650 14150 50  0000 C CNN
F 2 "Resistors:RES_0603" V 6730 14250 28  0001 C CNN
F 3 "" V 6730 14000 60  0000 C CNN
F 4 "0.5" V 6830 14100 60  0001 C CNN "Price"
F 5 "2" V 6930 14200 60  0001 C CNN "SolderPoints"
	1    6650 14150
	1    0    0    1   
$EndComp
$Comp
L GND #PWR19
U 1 1 5848D053
P 2050 14000
F 0 "#PWR19" H 2140 13980 30  0001 C CNN
F 1 "GND" H 2050 13920 30  0001 C CNN
F 2 "" H 2050 14000 60  0001 C CNN
F 3 "" H 2050 14000 60  0001 C CNN
	1    2050 14000
	-1   0    0    -1  
$EndComp
Text Notes 1050 13150 0    60   ~ 0
Input
$Comp
L R R1
U 1 1 5848F59B
P 1700 13300
F 0 "R1" V 1780 13150 50  0000 C CNN
F 1 "10k" V 1700 13300 50  0000 C CNN
F 2 "Resistors:RES_0603" V 1780 13400 28  0001 C CNN
F 3 "" V 1780 13150 60  0000 C CNN
F 4 "0.5" V 1880 13250 60  0001 C CNN "Price"
F 5 "2" V 1980 13350 60  0001 C CNN "SolderPoints"
	1    1700 13300
	0    1    -1   0   
$EndComp
$Comp
L NPN Q3
U 1 1 5849023E
P 2600 13300
F 0 "Q3" H 2350 13450 60  0000 C CNN
F 1 "BC848" H 2400 13150 60  0000 C CNN
F 2 "SOT:SOT23-3" H 2700 13250 60  0001 C CNN
F 3 "" H 2800 13350 60  0001 C CNN
F 4 "3" H 2900 13450 60  0001 C CNN "SolderPoints"
	1    2600 13300
	1    0    0    -1  
$EndComp
$Comp
L GND #PWR23
U 1 1 58490244
P 2650 14000
F 0 "#PWR23" H 2740 13980 30  0001 C CNN
F 1 "GND" H 2650 13920 30  0001 C CNN
F 2 "" H 2650 14000 60  0001 C CNN
F 3 "" H 2650 14000 60  0001 C CNN
	1    2650 14000
	1    0    0    -1  
$EndComp
Text Label 2100 12950 0    60   ~ 0
SignalInput
Text Label 8150 2750 0    60   ~ 0
SignalInput
$Comp
L CONN_3x2 XL4
U 1 1 5849B15A
P 1250 12050
F 0 "XL4" V 1200 12000 40  0000 C CNN
F 1 "CONN_3x2" V 1300 12050 40  0000 C CNN
F 2 "Connectors:PLD-6" H 1250 12000 60  0001 C CNN
F 3 "" H 1250 12000 60  0000 C CNN
F 4 "6" V 1300 12100 60  0001 C CNN "SolderPointsDIP"
F 5 "1" V 1400 12200 60  0001 C CNN "Price"
	1    1250 12050
	1    0    0    -1  
$EndComp
Text Label 700  11950 0    60   ~ 0
Servo1
Text Label 1800 11950 2    60   ~ 0
Servo2
$Comp
L +5V #PWR13
U 1 1 584A11FF
P 1550 12050
F 0 "#PWR13" H 1550 12010 30  0001 C CNN
F 1 "+5V" H 1630 12080 30  0000 C CNN
F 2 "~" H 1550 12050 60  0000 C CNN
F 3 "~" H 1550 12050 60  0000 C CNN
	1    1550 12050
	1    0    0    -1  
$EndComp
$Comp
L +5V #PWR3
U 1 1 584A12F5
P 950 12050
F 0 "#PWR3" H 950 12010 30  0001 C CNN
F 1 "+5V" H 1030 12080 30  0000 C CNN
F 2 "~" H 950 12050 60  0000 C CNN
F 3 "~" H 950 12050 60  0000 C CNN
	1    950  12050
	-1   0    0    -1  
$EndComp
$Comp
L R R37
U 1 1 584A63E0
P 14100 8950
F 0 "R37" V 14180 8800 50  0000 C CNN
F 1 "1k" V 14100 8950 50  0000 C CNN
F 2 "Resistors:RES_0603" V 14180 9050 28  0001 C CNN
F 3 "" V 14180 8800 60  0000 C CNN
F 4 "0.5" V 14280 8900 60  0001 C CNN "Price"
F 5 "2" V 14380 9000 60  0001 C CNN "SolderPoints"
	1    14100 8950
	0    1    -1   0   
$EndComp
$Comp
L NPN Q17
U 1 1 584A63EA
P 14650 8950
F 0 "Q17" H 14850 9000 60  0000 C CNN
F 1 "MMBT2222" H 15000 8900 60  0000 C CNN
F 2 "SOT:SOT23-3" H 14750 8900 60  0001 C CNN
F 3 "" H 14850 9000 60  0001 C CNN
F 4 "3" H 14950 9100 60  0001 C CNN "SolderPoints"
F 5 "1" H 14650 8950 60  0001 C CNN "Price"
F 6 "https://www.terraelectronica.ru/catalog_info.php?CODE=179336" H 14650 8950 60  0001 C CNN "URL"
	1    14650 8950
	1    0    0    -1  
$EndComp
$Comp
L GND #PWR101
U 1 1 584A63F1
P 14700 9250
F 0 "#PWR101" H 14790 9230 30  0001 C CNN
F 1 "GND" H 14700 9170 30  0001 C CNN
F 2 "" H 14700 9250 60  0000 C CNN
F 3 "" H 14700 9250 60  0000 C CNN
	1    14700 9250
	-1   0    0    1   
$EndComp
$Comp
L BUZZER BZ1
U 1 1 584A63F9
P 14700 8350
F 0 "BZ1" H 14900 8450 60  0000 C CNN
F 1 "PS-9627" H 15000 8250 60  0000 C CNN
F 2 "Installation:BUZZER_HC0903" H 14700 8350 60  0001 C CNN
F 3 "" H 14700 8350 60  0000 C CNN
F 4 "http://www.quartz1.com/price/model.php?akt=7940.06" H 14700 8350 60  0001 C CNN "URL"
F 5 "10" H 14700 8350 60  0001 C CNN "Price"
	1    14700 8350
	1    0    0    -1  
$EndComp
Text Label 13400 8950 0    60   ~ 0
Sound
$Comp
L +5V #PWR100
U 1 1 584A9275
P 14700 8000
F 0 "#PWR100" H 14700 7960 30  0001 C CNN
F 1 "+5V" H 14780 8030 30  0000 C CNN
F 2 "" H 14700 8000 60  0000 C CNN
F 3 "" H 14700 8000 60  0000 C CNN
	1    14700 8000
	0    -1   -1   0   
$EndComp
$Comp
L HOLE_METALLED HOLE1
U 1 1 584AA779
P 19900 13550
F 0 "HOLE1" H 19400 13500 60  0000 C CNN
F 1 "HOLE_METALLED" H 19350 13600 60  0000 C CNN
F 2 "PCB:Hole2d4_out4d5mm" H 19300 13400 60  0001 C CNN
F 3 "" H 19400 13500 60  0001 C CNN
F 4 "0" H 19500 13600 60  0001 C CNN "Price"
F 5 "0" H 19600 13700 60  0001 C CNN "SolderPoints"
	1    19900 13550
	1    0    0    -1  
$EndComp
$Comp
L HOLE_METALLED HOLE3
U 1 1 584AAC78
P 19900 14050
F 0 "HOLE3" H 19400 14000 60  0000 C CNN
F 1 "HOLE_METALLED" H 19350 14100 60  0000 C CNN
F 2 "PCB:Hole2d4_out4d5mm" H 19300 13900 60  0001 C CNN
F 3 "" H 19400 14000 60  0001 C CNN
F 4 "0" H 19500 14100 60  0001 C CNN "Price"
F 5 "0" H 19600 14200 60  0001 C CNN "SolderPoints"
	1    19900 14050
	1    0    0    -1  
$EndComp
$Comp
L HOLE_METALLED HOLE4
U 1 1 584AAC81
P 19900 14300
F 0 "HOLE4" H 19400 14250 60  0000 C CNN
F 1 "HOLE_METALLED" H 19350 14350 60  0000 C CNN
F 2 "PCB:Hole2d4_out4d5mm" H 19300 14150 60  0001 C CNN
F 3 "" H 19400 14250 60  0001 C CNN
F 4 "0" H 19500 14350 60  0001 C CNN "Price"
F 5 "0" H 19600 14450 60  0001 C CNN "SolderPoints"
	1    19900 14300
	1    0    0    -1  
$EndComp
$Comp
L REFPOINT RP1
U 1 1 584AB04F
P 19250 12500
F 0 "RP1" H 19950 12500 60  0000 C CNN
F 1 "REFPOINT" H 19600 12500 60  0000 C CNN
F 2 "PCB:REF_POINT_1MM" H 19250 12500 60  0001 C CNN
F 3 "" H 19250 12500 60  0000 C CNN
	1    19250 12500
	1    0    0    -1  
$EndComp
$Comp
L REFPOINT RP2
U 1 1 584AB32F
P 19250 12750
F 0 "RP2" H 19950 12750 60  0000 C CNN
F 1 "REFPOINT" H 19600 12750 60  0000 C CNN
F 2 "PCB:REF_POINT_1MM" H 19250 12750 60  0001 C CNN
F 3 "" H 19250 12750 60  0000 C CNN
	1    19250 12750
	1    0    0    -1  
$EndComp
NoConn ~ 7950 4050
NoConn ~ 7950 1750
NoConn ~ 7950 1950
NoConn ~ 7950 2050
Text Label 8300 1650 2    60   ~ 0
Sound
NoConn ~ 3950 2150
NoConn ~ 3950 2050
NoConn ~ 3950 1450
NoConn ~ 3950 1350
NoConn ~ 3950 1250
NoConn ~ 3950 1050
NoConn ~ 3950 950 
NoConn ~ 3950 850 
NoConn ~ 7950 2950
NoConn ~ 7950 3050
$Comp
L PWR_FLAG #FLG1
U 1 1 584CD5F3
P 2000 10300
F 0 "#FLG1" H 2000 10570 30  0001 C CNN
F 1 "PWR_FLAG" H 2000 10500 30  0000 C CNN
F 2 "" H 2000 10300 60  0000 C CNN
F 3 "" H 2000 10300 60  0000 C CNN
	1    2000 10300
	1    0    0    -1  
$EndComp
$Comp
L PWR_FLAG #FLG2
U 1 1 584D2524
P 2000 10700
F 0 "#FLG2" H 2000 10970 30  0001 C CNN
F 1 "PWR_FLAG" H 2000 10900 30  0000 C CNN
F 2 "" H 2000 10700 60  0000 C CNN
F 3 "" H 2000 10700 60  0000 C CNN
	1    2000 10700
	1    0    0    -1  
$EndComp
Text Label 3000 2250 0    60   ~ 0
Servo1
Text Label 3000 2350 0    60   ~ 0
Servo2
$Comp
L R R8
U 1 1 584D7D1F
P 3600 2250
F 0 "R8" V 3650 2050 50  0000 C CNN
F 1 "1k" V 3600 2250 50  0000 C CNN
F 2 "Resistors:RES_0603" V 3680 2350 28  0001 C CNN
F 3 "" V 3680 2100 60  0000 C CNN
F 4 "0.5" V 3780 2200 60  0001 C CNN "Price"
F 5 "2" V 3880 2300 60  0001 C CNN "SolderPoints"
	1    3600 2250
	0    1    -1   0   
$EndComp
$Comp
L R R9
U 1 1 584D8194
P 3600 2350
F 0 "R9" V 3650 2150 50  0000 C CNN
F 1 "1k" V 3600 2350 50  0000 C CNN
F 2 "Resistors:RES_0603" V 3680 2450 28  0001 C CNN
F 3 "" V 3680 2200 60  0000 C CNN
F 4 "0.5" V 3780 2300 60  0001 C CNN "Price"
F 5 "2" V 3880 2400 60  0001 C CNN "SolderPoints"
	1    3600 2350
	0    1    -1   0   
$EndComp
$Comp
L CP C36
U 1 1 583EA932
P 9250 10100
F 0 "C36" H 9300 10200 50  0000 L CNN
F 1 "100u" H 9200 10000 50  0000 L CNN
F 2 "Capacitors:SMD_D6d3" H 9200 10100 60  0001 C CNN
F 3 "" H 9300 10200 60  0001 C CNN
F 4 "5.35" H 9400 10300 60  0001 C CNN "Price"
F 5 "2" H 9500 10400 60  0001 C CNN "SolderPoints"
F 6 "CA016M0100RED-0605" H 9700 10600 60  0001 C CNN "PN"
	1    9250 10100
	-1   0    0    -1  
$EndComp
$Comp
L HOLE_METALLED HOLE2
U 1 1 584AAACD
P 19900 13800
F 0 "HOLE2" H 19400 13750 60  0000 C CNN
F 1 "HOLE_METALLED" H 19350 13850 60  0000 C CNN
F 2 "PCB:Hole2d4_out4d5mm" H 19300 13650 60  0001 C CNN
F 3 "" H 19400 13750 60  0001 C CNN
F 4 "0" H 19500 13850 60  0001 C CNN "Price"
F 5 "0" H 19600 13950 60  0001 C CNN "SolderPoints"
	1    19900 13800
	1    0    0    -1  
$EndComp
$Comp
L GND #PWR109
U 1 1 583F2423
P 20300 14400
F 0 "#PWR109" H 20390 14380 30  0001 C CNN
F 1 "GND" H 20300 14320 30  0001 C CNN
F 2 "" H 20300 14400 60  0000 C CNN
F 3 "" H 20300 14400 60  0000 C CNN
	1    20300 14400
	-1   0    0    1   
$EndComp
$Comp
L GND #PWR98
U 1 1 583F34DD
P 14400 7100
F 0 "#PWR98" H 14490 7080 30  0001 C CNN
F 1 "GND" H 14400 7020 30  0001 C CNN
F 2 "" H 14400 7100 60  0000 C CNN
F 3 "" H 14400 7100 60  0000 C CNN
	1    14400 7100
	1    0    0    -1  
$EndComp
$Comp
L GND #PWR105
U 1 1 583F35F7
P 15150 7100
F 0 "#PWR105" H 15240 7080 30  0001 C CNN
F 1 "GND" H 15150 7020 30  0001 C CNN
F 2 "" H 15150 7100 60  0000 C CNN
F 3 "" H 15150 7100 60  0000 C CNN
	1    15150 7100
	1    0    0    -1  
$EndComp
$Comp
L GND #PWR52
U 1 1 583F3F41
P 8750 6400
F 0 "#PWR52" H 8840 6380 30  0001 C CNN
F 1 "GND" H 8750 6320 30  0001 C CNN
F 2 "" H 8750 6400 60  0000 C CNN
F 3 "" H 8750 6400 60  0000 C CNN
	1    8750 6400
	1    0    0    -1  
$EndComp
$Comp
L GND #PWR49
U 1 1 583F405B
P 7500 6400
F 0 "#PWR49" H 7590 6380 30  0001 C CNN
F 1 "GND" H 7500 6320 30  0001 C CNN
F 2 "" H 7500 6400 60  0000 C CNN
F 3 "" H 7500 6400 60  0000 C CNN
	1    7500 6400
	1    0    0    -1  
$EndComp
$Comp
L GND #PWR44
U 1 1 583F49A5
P 6250 6400
F 0 "#PWR44" H 6340 6380 30  0001 C CNN
F 1 "GND" H 6250 6320 30  0001 C CNN
F 2 "" H 6250 6400 60  0000 C CNN
F 3 "" H 6250 6400 60  0000 C CNN
	1    6250 6400
	1    0    0    -1  
$EndComp
$Comp
L GND #PWR41
U 1 1 583F54FB
P 5850 8400
F 0 "#PWR41" H 5940 8380 30  0001 C CNN
F 1 "GND" H 5850 8320 30  0001 C CNN
F 2 "" H 5850 8400 60  0000 C CNN
F 3 "" H 5850 8400 60  0000 C CNN
	1    5850 8400
	1    0    0    -1  
$EndComp
$Comp
L GND #PWR7
U 1 1 583F7C43
P 1250 10900
F 0 "#PWR7" H 1340 10880 30  0001 C CNN
F 1 "GND" H 1250 10820 30  0001 C CNN
F 2 "" H 1250 10900 60  0000 C CNN
F 3 "" H 1250 10900 60  0000 C CNN
	1    1250 10900
	1    0    0    -1  
$EndComp
$Comp
L GND #PWR4
U 1 1 583F903E
P 1050 12250
F 0 "#PWR4" H 1140 12230 30  0001 C CNN
F 1 "GND" H 1050 12170 30  0001 C CNN
F 2 "" H 1050 12250 60  0000 C CNN
F 3 "" H 1050 12250 60  0000 C CNN
	1    1050 12250
	1    0    0    -1  
$EndComp
$Comp
L GND #PWR10
U 1 1 583F9158
P 1450 12250
F 0 "#PWR10" H 1540 12230 30  0001 C CNN
F 1 "GND" H 1450 12170 30  0001 C CNN
F 2 "" H 1450 12250 60  0000 C CNN
F 3 "" H 1450 12250 60  0000 C CNN
	1    1450 12250
	1    0    0    -1  
$EndComp
$Comp
L GND #PWR39
U 1 1 583F9C2B
P 5750 10800
F 0 "#PWR39" H 5840 10780 30  0001 C CNN
F 1 "GND" H 5750 10720 30  0001 C CNN
F 2 "" H 5750 10800 60  0000 C CNN
F 3 "" H 5750 10800 60  0000 C CNN
	1    5750 10800
	1    0    0    -1  
$EndComp
$Comp
L GND #PWR59
U 1 1 583F9D45
P 9250 10400
F 0 "#PWR59" H 9340 10380 30  0001 C CNN
F 1 "GND" H 9250 10320 30  0001 C CNN
F 2 "" H 9250 10400 60  0000 C CNN
F 3 "" H 9250 10400 60  0000 C CNN
	1    9250 10400
	1    0    0    -1  
$EndComp
$Comp
L GND #PWR51
U 1 1 583F9EE0
P 8500 10400
F 0 "#PWR51" H 8590 10380 30  0001 C CNN
F 1 "GND" H 8500 10320 30  0001 C CNN
F 2 "" H 8500 10400 60  0000 C CNN
F 3 "" H 8500 10400 60  0000 C CNN
	1    8500 10400
	1    0    0    -1  
$EndComp
$Comp
L GND #PWR58
U 1 1 583F9FEC
P 9000 10400
F 0 "#PWR58" H 9090 10380 30  0001 C CNN
F 1 "GND" H 9000 10320 30  0001 C CNN
F 2 "" H 9000 10400 60  0000 C CNN
F 3 "" H 9000 10400 60  0000 C CNN
	1    9000 10400
	1    0    0    -1  
$EndComp
$Comp
L GND #PWR53
U 1 1 583F9FF2
P 8750 10400
F 0 "#PWR53" H 8840 10380 30  0001 C CNN
F 1 "GND" H 8750 10320 30  0001 C CNN
F 2 "" H 8750 10400 60  0000 C CNN
F 3 "" H 8750 10400 60  0000 C CNN
	1    8750 10400
	1    0    0    -1  
$EndComp
$Comp
L GND #PWR45
U 1 1 583FA0FE
P 6250 10800
F 0 "#PWR45" H 6340 10780 30  0001 C CNN
F 1 "GND" H 6250 10720 30  0001 C CNN
F 2 "" H 6250 10800 60  0000 C CNN
F 3 "" H 6250 10800 60  0000 C CNN
	1    6250 10800
	1    0    0    -1  
$EndComp
$Comp
L GND #PWR43
U 1 1 583FA104
P 6000 10800
F 0 "#PWR43" H 6090 10780 30  0001 C CNN
F 1 "GND" H 6000 10720 30  0001 C CNN
F 2 "" H 6000 10800 60  0000 C CNN
F 3 "" H 6000 10800 60  0000 C CNN
	1    6000 10800
	1    0    0    -1  
$EndComp
$Comp
L GND #PWR50
U 1 1 583FA10A
P 8150 11050
F 0 "#PWR50" H 8240 11030 30  0001 C CNN
F 1 "GND" H 8150 10970 30  0001 C CNN
F 2 "" H 8150 11050 60  0000 C CNN
F 3 "" H 8150 11050 60  0000 C CNN
	1    8150 11050
	1    0    0    -1  
$EndComp
$Comp
L GND #PWR48
U 1 1 583FA110
P 6900 10800
F 0 "#PWR48" H 6990 10780 30  0001 C CNN
F 1 "GND" H 6900 10720 30  0001 C CNN
F 2 "" H 6900 10800 60  0000 C CNN
F 3 "" H 6900 10800 60  0000 C CNN
	1    6900 10800
	1    0    0    -1  
$EndComp
$Comp
L CP C35
U 1 1 583FBCB3
P 5500 10350
F 0 "C35" H 5550 10450 50  0000 L CNN
F 1 "100u" H 5450 10250 50  0000 L CNN
F 2 "Capacitors:SMD_D6d3" H 5450 10350 60  0001 C CNN
F 3 "" H 5550 10450 60  0001 C CNN
F 4 "5.35" H 5650 10550 60  0001 C CNN "Price"
F 5 "2" H 5750 10650 60  0001 C CNN "SolderPoints"
F 6 "CA016M0100RED-0605" H 5950 10850 60  0001 C CNN "PN"
	1    5500 10350
	-1   0    0    -1  
$EndComp
$Comp
L GND #PWR37
U 1 1 583FBCBA
P 5500 10800
F 0 "#PWR37" H 5590 10780 30  0001 C CNN
F 1 "GND" H 5500 10720 30  0001 C CNN
F 2 "" H 5500 10800 60  0000 C CNN
F 3 "" H 5500 10800 60  0000 C CNN
	1    5500 10800
	1    0    0    -1  
$EndComp
$Comp
L R R15
U 1 1 5845CD7B
P 5250 8100
F 0 "R15" V 5330 7950 50  0000 C CNN
F 1 "1k" V 5250 8100 50  0000 C CNN
F 2 "Resistors:RES_0603" V 5330 8200 28  0001 C CNN
F 3 "" V 5330 7950 60  0000 C CNN
F 4 "0.5" V 5430 8050 60  0001 C CNN "Price"
F 5 "2" V 5530 8150 60  0001 C CNN "SolderPoints"
	1    5250 8100
	0    1    -1   0   
$EndComp
$Comp
L NPN Q7
U 1 1 584584E3
P 5800 8100
F 0 "Q7" H 6000 8150 60  0000 C CNN
F 1 "BC848" H 6050 8050 60  0000 C CNN
F 2 "SOT:SOT23-3" H 5900 8050 60  0001 C CNN
F 3 "" H 6000 8150 60  0001 C CNN
F 4 "3" H 6100 8250 60  0001 C CNN "SolderPoints"
	1    5800 8100
	1    0    0    -1  
$EndComp
Wire Wire Line
	5500 8100 5600 8100
Connection ~ 5500 9800
Wire Wire Line
	5500 10150 5500 9800
Wire Wire Line
	5500 10550 5500 10800
Connection ~ 1250 10800
Wire Wire Line
	1250 10800 2000 10800
Connection ~ 20300 14300
Wire Wire Line
	20200 14300 20300 14300
Connection ~ 20300 14050
Wire Wire Line
	20200 14050 20300 14050
Connection ~ 20300 13800
Wire Wire Line
	20200 13800 20300 13800
Wire Wire Line
	20300 13550 20200 13550
Wire Wire Line
	20300 13550 20300 14400
Connection ~ 9250 9800
Wire Wire Line
	9250 9900 9250 9800
Wire Wire Line
	9250 10400 9250 10300
Wire Wire Line
	3950 2350 3850 2350
Wire Wire Line
	3850 2250 3950 2250
Wire Wire Line
	3350 2350 3000 2350
Wire Wire Line
	3000 2250 3350 2250
Wire Wire Line
	2000 10800 2000 10700
Connection ~ 2000 10400
Wire Wire Line
	2000 10300 2000 10400
Wire Wire Line
	8300 1650 7950 1650
Wire Wire Line
	8050 3750 7950 3750
Wire Wire Line
	8150 2750 7950 2750
Wire Wire Line
	3500 1550 3950 1550
Wire Wire Line
	3800 1950 3950 1950
Wire Wire Line
	3800 1850 3950 1850
Wire Wire Line
	3800 1150 3950 1150
Wire Wire Line
	7950 2350 8650 2350
Wire Wire Line
	8250 3450 7950 3450
Wire Wire Line
	7950 3350 8250 3350
Wire Wire Line
	8250 3250 7950 3250
Wire Wire Line
	7950 3150 8250 3150
Wire Notes Line
	12550 7250 16050 7250
Wire Wire Line
	14700 8000 14700 8100
Wire Wire Line
	14700 8600 14700 8750
Wire Wire Line
	14700 9250 14700 9150
Wire Wire Line
	14450 8950 14350 8950
Wire Wire Line
	13400 8950 13850 8950
Wire Wire Line
	1450 12050 1550 12050
Wire Wire Line
	950  12050 1050 12050
Wire Wire Line
	1450 11950 1800 11950
Wire Wire Line
	700  11950 1050 11950
Wire Wire Line
	1050 12250 1050 12150
Wire Wire Line
	1450 12250 1450 12150
Wire Wire Line
	2650 12950 2650 13100
Wire Wire Line
	2100 12950 2650 12950
Wire Wire Line
	1950 13300 2400 13300
Wire Wire Line
	2650 13500 2650 14000
Wire Wire Line
	1450 13300 1350 13300
Wire Wire Line
	1250 10600 1250 10900
Wire Wire Line
	2050 13900 2050 14000
Wire Wire Line
	6650 14400 6650 14500
Wire Wire Line
	1900 10400 2100 10400
Wire Wire Line
	1250 10400 1500 10400
Wire Wire Line
	5150 14700 5800 14700
Wire Wire Line
	6300 14700 6400 14700
Wire Wire Line
	6650 14900 6650 15000
Connection ~ 6650 13800
Wire Wire Line
	6650 13700 6650 13900
Wire Wire Line
	6850 13800 6650 13800
Wire Wire Line
	6650 13100 6650 13200
Wire Wire Line
	1300 15200 1300 15300
Wire Notes Line
	500  8550 12550 8550
Wire Wire Line
	10150 7550 10100 7550
Wire Wire Line
	10700 7550 10650 7550
Wire Wire Line
	11150 7550 11100 7550
Wire Wire Line
	10150 7100 10100 7100
Wire Wire Line
	10700 7100 10650 7100
Wire Wire Line
	11150 7100 11100 7100
Wire Wire Line
	8000 7550 7950 7550
Wire Wire Line
	8550 7550 8500 7550
Wire Wire Line
	9000 7550 8950 7550
Wire Wire Line
	8000 7100 7950 7100
Wire Wire Line
	8550 7100 8500 7100
Wire Wire Line
	9000 7100 8950 7100
Wire Wire Line
	5850 7850 5850 7900
Wire Wire Line
	5850 7300 5850 7350
Wire Wire Line
	5850 6850 5850 6900
Wire Wire Line
	4950 8100 5000 8100
Wire Wire Line
	4950 8350 4950 8100
Wire Wire Line
	5500 8350 4950 8350
Wire Wire Line
	5400 6400 5950 6400
Wire Wire Line
	5400 6100 5400 6400
Wire Wire Line
	5450 6100 5400 6100
Wire Wire Line
	6650 6100 6700 6100
Wire Wire Line
	6650 6400 6650 6100
Wire Wire Line
	7150 6400 6650 6400
Wire Wire Line
	7900 6100 7950 6100
Wire Wire Line
	7900 6400 7900 6100
Wire Wire Line
	8450 6400 7900 6400
Wire Wire Line
	5950 6100 6000 6100
Wire Wire Line
	7200 6100 7250 6100
Wire Wire Line
	8450 6100 8500 6100
Wire Wire Line
	6250 5450 6250 5900
Wire Wire Line
	6250 5450 9300 5450
Wire Wire Line
	7500 5600 7500 5900
Wire Wire Line
	7500 5600 9300 5600
Wire Wire Line
	8750 5750 8750 5900
Wire Wire Line
	9300 5750 8750 5750
Wire Wire Line
	6250 6400 6250 6300
Wire Wire Line
	7500 6400 7500 6300
Wire Wire Line
	8750 6400 8750 6300
Wire Wire Line
	5850 8400 5850 8300
Wire Wire Line
	11250 5450 11250 6300
Wire Wire Line
	9800 5600 10350 5600
Wire Wire Line
	9800 5450 10350 5450
Wire Wire Line
	9800 5750 10350 5750
Connection ~ 10250 5450
Connection ~ 10150 5600
Connection ~ 10050 5750
Wire Wire Line
	10050 6000 10050 5750
Wire Wire Line
	10150 6100 10150 5600
Wire Wire Line
	10250 6200 10250 5450
Wire Wire Line
	11250 5450 11150 5450
Wire Wire Line
	11250 5750 11150 5750
Wire Wire Line
	11150 5600 11350 5600
Connection ~ 11250 5600
Connection ~ 11250 5750
Wire Wire Line
	11250 6300 10050 6300
Wire Wire Line
	10050 6200 10250 6200
Wire Wire Line
	10050 6100 10150 6100
Wire Wire Line
	12150 5800 12150 5900
Wire Wire Line
	12150 6400 12150 6500
Wire Wire Line
	2150 8050 1700 8050
Wire Wire Line
	2750 8050 2650 8050
Wire Wire Line
	12150 7000 12150 6900
Connection ~ 11500 9800
Wire Wire Line
	11250 10400 11250 10000
Wire Wire Line
	11500 10400 11500 10300
Wire Wire Line
	11500 9800 11500 9900
Wire Wire Line
	11250 9800 11600 9800
Connection ~ 10150 9800
Wire Wire Line
	10150 9900 10150 9800
Connection ~ 10350 9800
Wire Wire Line
	10150 10400 10150 10300
Wire Wire Line
	10050 9800 10450 9800
Wire Wire Line
	10350 10000 10350 9800
Wire Wire Line
	10450 10000 10350 10000
Wire Wire Line
	8150 11050 8150 10950
Wire Wire Line
	9000 10400 9000 10300
Wire Wire Line
	8750 10400 8750 10300
Connection ~ 9000 9800
Wire Wire Line
	9000 9900 9000 9800
Wire Wire Line
	8500 10400 8500 10300
Wire Wire Line
	8050 9800 9300 9800
Connection ~ 9150 9800
Wire Wire Line
	9150 9600 9150 9800
Connection ~ 8300 9800
Wire Wire Line
	8300 9300 8300 9800
Wire Wire Line
	7400 9300 8300 9300
Wire Wire Line
	6900 9300 5750 9300
Connection ~ 8750 9800
Wire Wire Line
	8750 9900 8750 9800
Connection ~ 8500 9800
Wire Wire Line
	8500 9900 8500 9800
Connection ~ 8150 9800
Connection ~ 8150 10400
Wire Wire Line
	7650 10400 8150 10400
Wire Wire Line
	7650 10200 7650 10400
Wire Wire Line
	7500 10200 7650 10200
Wire Wire Line
	8150 9850 8150 9800
Wire Wire Line
	8150 10450 8150 10350
Wire Wire Line
	7650 9800 7500 9800
Connection ~ 6900 10600
Wire Wire Line
	6900 10500 6900 10800
Wire Wire Line
	7000 10600 7000 10500
Wire Wire Line
	6800 10600 7000 10600
Wire Wire Line
	6800 10500 6800 10600
Connection ~ 6200 9900
Wire Wire Line
	6200 10000 6200 9900
Wire Wire Line
	6250 10000 6200 10000
Wire Wire Line
	6000 9900 6000 10150
Wire Wire Line
	5300 9800 6250 9800
Connection ~ 6000 9900
Wire Wire Line
	5950 9900 6250 9900
Wire Wire Line
	6000 10550 6000 10800
Wire Wire Line
	6250 10200 6250 10800
Wire Wire Line
	5750 10550 5750 10800
Connection ~ 5750 9800
Wire Wire Line
	5750 9300 5750 10150
Wire Notes Line
	4600 5050 4600 16050
Wire Wire Line
	3700 6950 3400 6950
Wire Wire Line
	4200 7200 4100 7200
Connection ~ 3500 7200
Wire Wire Line
	3500 7200 3500 7250
Wire Wire Line
	3400 7200 3600 7200
Wire Wire Line
	3500 7650 3500 7750
Wire Wire Line
	3000 7550 3000 7750
Wire Wire Line
	3700 5650 3400 5650
Wire Wire Line
	4200 5900 4100 5900
Connection ~ 3500 5900
Wire Wire Line
	3500 5900 3500 5950
Wire Wire Line
	3400 5900 3600 5900
Wire Wire Line
	3500 6350 3500 6450
Wire Wire Line
	3000 6250 3000 6450
Wire Wire Line
	1800 6950 1500 6950
Wire Wire Line
	2300 7200 2200 7200
Connection ~ 1600 7200
Wire Wire Line
	1600 7200 1600 7250
Wire Wire Line
	1500 7200 1700 7200
Wire Wire Line
	1600 7650 1600 7750
Wire Wire Line
	1100 7550 1100 7750
Wire Wire Line
	1800 5650 1500 5650
Wire Wire Line
	2300 5900 2200 5900
Connection ~ 1600 5900
Wire Wire Line
	1600 5900 1600 5950
Wire Wire Line
	1500 5900 1700 5900
Wire Wire Line
	1600 6350 1600 6450
Wire Wire Line
	1100 6250 1100 6450
Wire Wire Line
	1850 4150 1500 4150
Wire Wire Line
	13650 1750 13650 1650
Connection ~ 13550 1750
Wire Wire Line
	13450 1750 13650 1750
Wire Wire Line
	13450 1650 13450 1750
Wire Wire Line
	13550 1650 13550 1950
Connection ~ 5650 4750
Wire Wire Line
	5350 4750 6300 4750
Wire Wire Line
	1100 1650 1650 1650
Wire Wire Line
	14400 7100 14400 7000
Connection ~ 14400 6400
Connection ~ 15150 5900
Wire Wire Line
	15150 5900 14400 5900
Wire Wire Line
	14400 6400 14900 6400
Wire Wire Line
	14400 6300 14400 6500
Wire Wire Line
	9350 4250 9450 4250
Wire Notes Line
	13050 3650 13050 5050
Wire Notes Line
	9100 3650 16050 3650
Wire Notes Line
	9100 5050 9100 3650
Wire Wire Line
	13900 4250 15750 4250
Wire Wire Line
	700  3850 650  3850
Wire Wire Line
	650  4050 700  4050
Wire Wire Line
	700  4150 650  4150
Wire Wire Line
	650  4250 700  4250
Wire Wire Line
	13950 6100 14150 6100
Wire Wire Line
	12850 6100 13450 6100
Wire Wire Line
	8050 2650 7950 2650
Wire Wire Line
	7950 2550 8050 2550
Wire Wire Line
	3350 1650 3950 1650
Wire Wire Line
	750  3350 1150 3350
Wire Wire Line
	1750 3400 1650 3400
Connection ~ 1150 3350
Wire Wire Line
	1150 3300 1150 3400
Wire Wire Line
	1650 3300 1750 3300
Wire Wire Line
	1950 3950 1500 3950
Wire Wire Line
	1950 3850 1500 3850
Connection ~ 1700 4150
Wire Bus Line
	8850 700  10650 700 
Wire Bus Line
	8850 1550 8850 700 
Wire Wire Line
	15150 5400 15150 5300
Wire Wire Line
	15150 5800 15150 6200
Wire Wire Line
	15150 6600 15150 7100
Connection ~ 14050 6100
Wire Wire Line
	14050 5850 13950 5850
Wire Wire Line
	14050 6100 14050 5850
Wire Wire Line
	12850 5850 13450 5850
Wire Wire Line
	3350 1750 3950 1750
Wire Wire Line
	1700 4200 1700 4150
Wire Wire Line
	1700 4600 1700 4700
Wire Wire Line
	1500 4700 1500 4250
Connection ~ 650  4250
Connection ~ 650  4150
Connection ~ 650  4050
Wire Wire Line
	650  3850 650  4700
Wire Wire Line
	9850 4250 12500 4250
Connection ~ 11100 4250
Wire Wire Line
	11100 4350 11100 4250
Wire Wire Line
	11100 4750 11100 4850
Wire Wire Line
	8000 1250 7950 1250
Connection ~ 12250 4250
Wire Wire Line
	12250 4750 12250 4850
Wire Wire Line
	12250 4250 12250 4350
Wire Notes Line
	11850 4850 11850 4000
Wire Wire Line
	3850 4300 3950 4300
Wire Wire Line
	3850 4850 3850 4300
Connection ~ 3850 4000
Wire Wire Line
	3850 4200 3950 4200
Connection ~ 5450 4750
Wire Wire Line
	5350 4600 5350 4750
Wire Wire Line
	5450 4600 5450 4750
Connection ~ 5550 4750
Wire Wire Line
	5650 4600 5650 4750
Wire Wire Line
	5550 4850 5550 4600
Wire Wire Line
	6300 4750 6300 4600
Wire Wire Line
	3850 4000 3950 4000
Connection ~ 3850 3600
Wire Wire Line
	3950 3500 3850 3500
Connection ~ 3850 3700
Wire Wire Line
	3950 3600 3850 3600
Connection ~ 3850 3800
Wire Wire Line
	3850 3500 3850 4200
Wire Wire Line
	3950 3700 3850 3700
Wire Wire Line
	3750 3800 3950 3800
Wire Wire Line
	2700 2800 3100 2800
Wire Wire Line
	2750 3000 2700 3000
Wire Wire Line
	2700 2600 2750 2600
Connection ~ 3250 2600
Connection ~ 3250 3000
Wire Wire Line
	3250 3000 3250 2950
Wire Wire Line
	3150 3000 3350 3000
Wire Wire Line
	3150 2600 3950 2600
Wire Wire Line
	3250 2650 3250 2600
Wire Wire Line
	3850 3000 3950 3000
Wire Wire Line
	7950 1150 8350 1150
Wire Wire Line
	8350 1050 7950 1050
Connection ~ 11400 4250
Wire Wire Line
	11400 4350 11400 4250
Wire Notes Line
	11550 4850 11550 4000
Wire Wire Line
	11400 4750 11400 4850
Wire Wire Line
	7950 2250 8400 2250
Wire Wire Line
	8400 2150 7950 2150
Wire Notes Line
	12550 5050 12550 11200
Wire Notes Line
	500  2750 2150 2750
Wire Notes Line
	2150 500  2150 5050
Wire Notes Line
	500  5050 16050 5050
Wire Wire Line
	12000 4750 12000 4850
Wire Wire Line
	10250 4750 10250 4850
Wire Wire Line
	10850 4750 10850 4850
Wire Wire Line
	11700 4750 11700 4850
Wire Wire Line
	9950 4750 9950 4850
Wire Wire Line
	10550 4750 10550 4850
Wire Wire Line
	10700 2500 10700 2100
Wire Wire Line
	10700 2100 11300 2100
Wire Wire Line
	11300 2000 10200 2000
Wire Wire Line
	10200 2000 10200 2500
Wire Wire Line
	10700 2900 10700 3000
Connection ~ 10700 2450
Wire Wire Line
	10300 2450 10200 2450
Connection ~ 10200 2450
Wire Wire Line
	10750 1500 11300 1500
Wire Wire Line
	10750 1300 11300 1300
Wire Wire Line
	15500 4750 15500 4850
Wire Wire Line
	14900 4750 14900 4850
Wire Wire Line
	15200 4750 15200 4850
Wire Wire Line
	14600 4750 14600 4850
Wire Wire Line
	14300 4750 14300 4850
Wire Wire Line
	12700 2600 12700 2300
Connection ~ 12700 2400
Wire Wire Line
	12650 2400 12700 2400
Wire Wire Line
	12000 2850 12000 3000
Wire Wire Line
	11000 2900 11000 3000
Wire Wire Line
	11300 2300 11000 2300
Wire Wire Line
	11000 2300 11000 2500
Wire Wire Line
	11250 2450 11250 2400
Wire Wire Line
	11250 2400 11300 2400
Wire Wire Line
	11250 2950 11250 3000
Wire Wire Line
	12700 2300 12650 2300
Wire Wire Line
	14000 4750 14000 4850
Wire Wire Line
	10750 1200 11300 1200
Wire Wire Line
	10750 1400 11300 1400
Wire Wire Line
	10200 2900 10200 3000
Wire Wire Line
	10450 2600 10450 3000
Wire Wire Line
	10600 2450 10700 2450
Wire Wire Line
	14150 1200 14150 1500
Wire Wire Line
	14150 1900 14150 1950
Wire Wire Line
	14700 1200 15250 1200
Connection ~ 14850 1200
Wire Wire Line
	1200 1550 1100 1550
Wire Wire Line
	1100 1750 1200 1750
Wire Wire Line
	1100 1450 1550 1450
Wire Wire Line
	1100 1950 1350 1950
Wire Wire Line
	7950 850  8750 850 
Wire Wire Line
	7950 950  8750 950 
Wire Wire Line
	7950 1350 8750 1350
Wire Wire Line
	7950 1450 8750 1450
Wire Wire Line
	7950 1550 8750 1550
Wire Wire Line
	1350 1850 1100 1850
Wire Wire Line
	10750 1700 11300 1700
Wire Bus Line
	10650 700  10650 1750
Wire Wire Line
	14850 1200 14850 1500
Wire Wire Line
	14850 1900 14850 1950
Connection ~ 14150 1200
Wire Wire Line
	13900 1200 14300 1200
Wire Wire Line
	12000 4250 12000 4350
Wire Wire Line
	9950 4350 9950 4250
Connection ~ 9950 4250
Wire Wire Line
	10250 4350 10250 4250
Connection ~ 10250 4250
Wire Wire Line
	10550 4350 10550 4250
Connection ~ 10550 4250
Wire Wire Line
	10850 4350 10850 4250
Connection ~ 10850 4250
Wire Wire Line
	11700 4350 11700 4250
Connection ~ 11700 4250
Wire Notes Line
	11250 4850 11250 4000
Wire Notes Line
	10100 4850 10100 4000
Wire Notes Line
	10400 4850 10400 4000
Wire Notes Line
	10700 4850 10700 4000
Wire Wire Line
	12650 1200 13000 1200
Wire Wire Line
	13000 1400 12650 1400
Wire Wire Line
	12650 1600 12750 1600
Wire Wire Line
	12750 1600 12750 2100
Wire Wire Line
	12650 2100 12900 2100
Wire Wire Line
	12650 2000 12750 2000
Connection ~ 12750 2000
Wire Wire Line
	12650 1900 12750 1900
Connection ~ 12750 1900
Wire Wire Line
	12650 1800 12750 1800
Connection ~ 12750 1800
Wire Wire Line
	12650 1700 12750 1700
Connection ~ 12750 1700
Connection ~ 12750 2100
Wire Wire Line
	13400 4250 13500 4250
Wire Wire Line
	15500 4350 15500 4250
Wire Wire Line
	14000 4350 14000 4250
Connection ~ 14000 4250
Wire Wire Line
	14300 4350 14300 4250
Connection ~ 14300 4250
Wire Wire Line
	14600 4350 14600 4250
Connection ~ 14600 4250
Wire Wire Line
	14900 4350 14900 4250
Connection ~ 14900 4250
Wire Wire Line
	15200 4350 15200 4250
Connection ~ 15200 4250
Wire Notes Line
	14150 4000 14150 4850
Wire Notes Line
	14450 4850 14450 4000
Wire Notes Line
	14750 4000 14750 4850
Wire Notes Line
	15050 4850 15050 4000
Wire Notes Line
	15350 4000 15350 4850
Connection ~ 12000 4250
Connection ~ 15500 4250
Wire Wire Line
	12400 4250 12400 4100
Connection ~ 12400 4250
Wire Wire Line
	15650 4250 15650 4100
Connection ~ 15650 4250
Wire Wire Line
	10550 1400 10150 1400
Wire Wire Line
	9600 1400 9650 1400
$Comp
L +5V #PWR104
U 1 1 58405966
P 15150 5300
F 0 "#PWR104" H 15150 5260 30  0001 C CNN
F 1 "+5V" H 15230 5330 30  0000 C CNN
F 2 "~" H 15150 5300 60  0000 C CNN
F 3 "~" H 15150 5300 60  0000 C CNN
	1    15150 5300
	0    -1   -1   0   
$EndComp
$Comp
L GND #PWR75
U 1 1 584167B3
P 11150 7550
F 0 "#PWR75" H 11240 7530 30  0001 C CNN
F 1 "GND" H 11150 7470 30  0001 C CNN
F 2 "" H 11150 7550 60  0000 C CNN
F 3 "" H 11150 7550 60  0000 C CNN
	1    11150 7550
	0    -1   -1   0   
$EndComp
$Comp
L GND #PWR57
U 1 1 584168B1
P 9000 7550
F 0 "#PWR57" H 9090 7530 30  0001 C CNN
F 1 "GND" H 9000 7470 30  0001 C CNN
F 2 "" H 9000 7550 60  0000 C CNN
F 3 "" H 9000 7550 60  0000 C CNN
	1    9000 7550
	0    -1   -1   0   
$EndComp
$Comp
L GND #PWR74
U 1 1 584169AF
P 11150 7100
F 0 "#PWR74" H 11240 7080 30  0001 C CNN
F 1 "GND" H 11150 7020 30  0001 C CNN
F 2 "" H 11150 7100 60  0000 C CNN
F 3 "" H 11150 7100 60  0000 C CNN
	1    11150 7100
	0    -1   -1   0   
$EndComp
$Comp
L GND #PWR56
U 1 1 584169B5
P 9000 7100
F 0 "#PWR56" H 9090 7080 30  0001 C CNN
F 1 "GND" H 9000 7020 30  0001 C CNN
F 2 "" H 9000 7100 60  0000 C CNN
F 3 "" H 9000 7100 60  0000 C CNN
	1    9000 7100
	0    -1   -1   0   
$EndComp
NoConn ~ 3950 3300
$Comp
L Logo Logo2
U 1 1 5841F64B
P 21850 14050
F 0 "Logo2" H 21750 14500 60  0000 C CNN
F 1 "Logo" H 22050 14500 60  0000 C CNN
F 2 "Pictures:Polytech_33x11" H 21850 14050 60  0001 C CNN
F 3 "" H 21850 14050 60  0000 C CNN
	1    21850 14050
	1    0    0    -1  
$EndComp
Text Label 6850 13800 0    60   ~ 0
Output1
$Comp
L R R23
U 1 1 5848F437
P 8950 13450
F 0 "R23" V 9030 13300 50  0000 C CNN
F 1 "10k" V 8950 13450 50  0000 C CNN
F 2 "Resistors:RES_0603" V 9030 13550 28  0001 C CNN
F 3 "" V 9030 13300 60  0000 C CNN
F 4 "0.5" V 9130 13400 60  0001 C CNN "Price"
F 5 "2" V 9230 13500 60  0001 C CNN "SolderPoints"
	1    8950 13450
	1    0    0    1   
$EndComp
$Comp
L +3.3V #PWR54
U 1 1 5848F43D
P 8950 13100
F 0 "#PWR54" H 8950 13060 30  0001 C CNN
F 1 "+3.3V" H 9030 13130 30  0000 C CNN
F 2 "" H 8950 13100 60  0000 C CNN
F 3 "" H 8950 13100 60  0000 C CNN
	1    8950 13100
	0    -1   -1   0   
$EndComp
$Comp
L NPN Q9
U 1 1 5848F444
P 8900 14700
F 0 "Q9" H 8650 14850 60  0000 C CNN
F 1 "BC848" H 8700 14550 60  0000 C CNN
F 2 "SOT:SOT23-3" H 9000 14650 60  0001 C CNN
F 3 "" H 9100 14750 60  0001 C CNN
F 4 "3" H 9200 14850 60  0001 C CNN "SolderPoints"
	1    8900 14700
	1    0    0    -1  
$EndComp
$Comp
L GND #PWR55
U 1 1 5848F44A
P 8950 15000
F 0 "#PWR55" H 9040 14980 30  0001 C CNN
F 1 "GND" H 8950 14920 30  0001 C CNN
F 2 "" H 8950 15000 60  0001 C CNN
F 3 "" H 8950 15000 60  0001 C CNN
	1    8950 15000
	1    0    0    -1  
$EndComp
$Comp
L R R18
U 1 1 5848F452
P 8350 14700
F 0 "R18" V 8430 14550 50  0000 C CNN
F 1 "1k" V 8350 14700 50  0000 C CNN
F 2 "Resistors:RES_0603" V 8430 14800 28  0001 C CNN
F 3 "" V 8430 14550 60  0000 C CNN
F 4 "0.5" V 8530 14650 60  0001 C CNN "Price"
F 5 "2" V 8630 14750 60  0001 C CNN "SolderPoints"
	1    8350 14700
	0    1    -1   0   
$EndComp
Text Label 7450 14700 0    60   ~ 0
SignalOutput2
$Comp
L R R26
U 1 1 5848F45B
P 8950 14150
F 0 "R26" V 9030 14000 50  0000 C CNN
F 1 "100R" V 8950 14150 50  0000 C CNN
F 2 "Resistors:RES_0603" V 9030 14250 28  0001 C CNN
F 3 "" V 9030 14000 60  0000 C CNN
F 4 "0.5" V 9130 14100 60  0001 C CNN "Price"
F 5 "2" V 9230 14200 60  0001 C CNN "SolderPoints"
	1    8950 14150
	1    0    0    1   
$EndComp
Wire Wire Line
	8950 14400 8950 14500
Wire Wire Line
	7450 14700 8100 14700
Wire Wire Line
	8600 14700 8700 14700
Wire Wire Line
	8950 14900 8950 15000
Connection ~ 8950 13800
Wire Wire Line
	8950 13700 8950 13900
Wire Wire Line
	9150 13800 8950 13800
Wire Wire Line
	8950 13100 8950 13200
Text Label 9150 13800 0    60   ~ 0
Output2
$Comp
L R R39
U 1 1 58490580
P 11200 13450
F 0 "R39" V 11280 13300 50  0000 C CNN
F 1 "10k" V 11200 13450 50  0000 C CNN
F 2 "Resistors:RES_0603" V 11280 13550 28  0001 C CNN
F 3 "" V 11280 13300 60  0000 C CNN
F 4 "0.5" V 11380 13400 60  0001 C CNN "Price"
F 5 "2" V 11480 13500 60  0001 C CNN "SolderPoints"
	1    11200 13450
	1    0    0    1   
$EndComp
$Comp
L +3.3V #PWR76
U 1 1 58490586
P 11200 13100
F 0 "#PWR76" H 11200 13060 30  0001 C CNN
F 1 "+3.3V" H 11280 13130 30  0000 C CNN
F 2 "" H 11200 13100 60  0000 C CNN
F 3 "" H 11200 13100 60  0000 C CNN
	1    11200 13100
	0    -1   -1   0   
$EndComp
$Comp
L NPN Q11
U 1 1 5849058D
P 11150 14700
F 0 "Q11" H 10900 14850 60  0000 C CNN
F 1 "BC848" H 10950 14550 60  0000 C CNN
F 2 "SOT:SOT23-3" H 11250 14650 60  0001 C CNN
F 3 "" H 11350 14750 60  0001 C CNN
F 4 "3" H 11450 14850 60  0001 C CNN "SolderPoints"
	1    11150 14700
	1    0    0    -1  
$EndComp
$Comp
L GND #PWR77
U 1 1 58490593
P 11200 15000
F 0 "#PWR77" H 11290 14980 30  0001 C CNN
F 1 "GND" H 11200 14920 30  0001 C CNN
F 2 "" H 11200 15000 60  0001 C CNN
F 3 "" H 11200 15000 60  0001 C CNN
	1    11200 15000
	1    0    0    -1  
$EndComp
$Comp
L R R32
U 1 1 5849059B
P 10600 14700
F 0 "R32" V 10680 14550 50  0000 C CNN
F 1 "1k" V 10600 14700 50  0000 C CNN
F 2 "Resistors:RES_0603" V 10680 14800 28  0001 C CNN
F 3 "" V 10680 14550 60  0000 C CNN
F 4 "0.5" V 10780 14650 60  0001 C CNN "Price"
F 5 "2" V 10880 14750 60  0001 C CNN "SolderPoints"
	1    10600 14700
	0    1    -1   0   
$EndComp
Text Label 9700 14700 0    60   ~ 0
SignalOutput3
$Comp
L R R40
U 1 1 584905A4
P 11200 14150
F 0 "R40" V 11280 14000 50  0000 C CNN
F 1 "100R" V 11200 14150 50  0000 C CNN
F 2 "Resistors:RES_0603" V 11280 14250 28  0001 C CNN
F 3 "" V 11280 14000 60  0000 C CNN
F 4 "0.5" V 11380 14100 60  0001 C CNN "Price"
F 5 "2" V 11480 14200 60  0001 C CNN "SolderPoints"
	1    11200 14150
	1    0    0    1   
$EndComp
Wire Wire Line
	11200 14400 11200 14500
Wire Wire Line
	9700 14700 10350 14700
Wire Wire Line
	10850 14700 10950 14700
Wire Wire Line
	11200 14900 11200 15000
Connection ~ 11200 13800
Wire Wire Line
	11200 13700 11200 13900
Wire Wire Line
	11400 13800 11200 13800
Wire Wire Line
	11200 13100 11200 13200
Text Label 11400 13800 0    60   ~ 0
Output3
Wire Notes Line
	18650 14750 18650 12050
Wire Notes Line
	18650 12050 22900 12050
Text Label 1700 14900 2    60   ~ 0
Output1
Text Label 1700 15000 2    60   ~ 0
Output2
Text Label 1700 15100 2    60   ~ 0
Output3
$Comp
L CONN_4 XL2
U 1 1 584980FD
P 1100 15050
F 0 "XL2" V 1050 15050 40  0000 C CNN
F 1 "CONN_4" V 1150 15050 40  0000 C CNN
F 2 "Connectors:XY302V-04P" V 950 14950 60  0001 C CNN
F 3 "" V 1050 15050 60  0001 C CNN
F 4 "0" V 1450 15450 60  0001 C CNN "SolderPoints"
F 5 "4" V 1550 15550 60  0001 C CNN "SolderPointsDIP"
F 6 "XY302V-04P" V 1100 15050 60  0001 C CNN "PN"
	1    1100 15050
	1    0    0    1   
$EndComp
Wire Wire Line
	1700 14900 1300 14900
Wire Wire Line
	1300 15000 1700 15000
Wire Wire Line
	1700 15100 1300 15100
Text Notes 1300 14600 2    60   ~ 0
Outputs
Wire Notes Line
	12550 11200 4600 11200
Text Label 8050 3550 0    60   ~ 0
SignalOutput1
Text Label 8050 3650 0    60   ~ 0
SignalOutput2
Wire Wire Line
	8050 3550 7950 3550
Wire Wire Line
	7950 3650 8050 3650
Text Notes 1100 11700 0    60   ~ 0
Servos
$Comp
L CONN_2 XL5
U 1 1 58481B08
P 1150 13400
F 0 "XL5" V 1100 13400 40  0000 C CNN
F 1 "CONN_2" V 1200 13400 40  0000 C CNN
F 2 "Connectors:XY302V-02P" H 1150 13400 60  0001 C CNN
F 3 "" H 1150 13400 60  0000 C CNN
F 4 "XY302V-02P" V 1150 13400 60  0001 C CNN "PN"
F 5 "http://www.zip-2002.ru/klemmniki/terminalnye_bloki/58220/xy302v-02p_3.5mm_lift/" V 1150 13400 60  0001 C CNN "URL"
F 6 "9" V 1150 13400 60  0001 C CNN "Price"
F 7 "2" V 1150 13400 60  0001 C CNN "SolderPointsDIP"
	1    1150 13400
	-1   0    0    1   
$EndComp
$Comp
L R R41
U 1 1 58501B96
P 2050 13650
F 0 "R41" V 2130 13500 50  0000 C CNN
F 1 "10k" V 2050 13650 50  0000 C CNN
F 2 "Resistors:RES_0603" V 2130 13750 28  0001 C CNN
F 3 "" V 2130 13500 60  0000 C CNN
F 4 "0.5" V 2230 13600 60  0001 C CNN "Price"
F 5 "2" V 2330 13700 60  0001 C CNN "SolderPoints"
	1    2050 13650
	1    0    0    1   
$EndComp
Wire Wire Line
	2050 13400 2050 13300
Connection ~ 2050 13300
$Comp
L GND #PWR9
U 1 1 585040CE
P 1350 14000
F 0 "#PWR9" H 1440 13980 30  0001 C CNN
F 1 "GND" H 1350 13920 30  0001 C CNN
F 2 "" H 1350 14000 60  0001 C CNN
F 3 "" H 1350 14000 60  0001 C CNN
	1    1350 14000
	-1   0    0    -1  
$EndComp
Wire Wire Line
	1350 13500 1350 14000
$EndSCHEMATC
